01/10/2020
02/10/2020
03/10/2020
04/10/2020
05/10/2020
06/10/2020
07/10/2020
08/10/2020
09/10/2020
10/10/2020
11/10/2020
12/10/2020
13/10/2020
14/10/2020
15/10/2020
16/10/2020
17/10/2020
18/10/2020
19/10/2020
20/10/2020
21/10/2020
22/10/2020
23/10/2020
24/10/2020
25/10/2020
26/10/2020
27/10/2020
28/10/2020
29/10/2020
30/10/2020
31/10/2020