file	Format_Id	Source_Path	Destination_Path	status
9346631	F1	\\172.27.137.202\One_app_download\9346631	C:\Users\mgoas\Documents\File_copy\PDF\F1\9346631\	Empty_Folder
9360130	F1	\\172.27.137.202\One_app_download\9360130	C:\Users\mgoas\Documents\File_copy\PDF\F1\9360130\	Empty_Folder
9259587	F1	\\172.27.137.202\One_app_download\9259587	C:\Users\mgoas\Documents\File_copy\PDF\F1\9259587\	Empty_Folder
9431092	F1	\\172.27.137.202\One_app_download\9431092	C:\Users\mgoas\Documents\File_copy\PDF\F1\9431092\	0
9539317	F1	\\172.27.137.202\One_app_download\9539317	C:\Users\mgoas\Documents\File_copy\PDF\F1\9539317\	0
9317422	F1	\\172.27.137.202\One_app_download\9317422	C:\Users\mgoas\Documents\File_copy\PDF\F1\9317422\	Empty_Folder
9353122	F1	\\172.27.137.202\One_app_download\9353122	C:\Users\mgoas\Documents\File_copy\PDF\F1\9353122\	Empty_Folder
9283068	F1	\\172.27.137.202\One_app_download\9283068	C:\Users\mgoas\Documents\File_copy\PDF\F1\9283068\	Empty_Folder
9319980	F1	\\172.27.137.202\One_app_download\9319980	C:\Users\mgoas\Documents\File_copy\PDF\F1\9319980\	Empty_Folder
9255465	F1	\\172.27.137.202\One_app_download\9255465	C:\Users\mgoas\Documents\File_copy\PDF\F1\9255465\	Empty_Folder
9547979	F1	\\172.27.137.202\One_app_download\9547979	C:\Users\mgoas\Documents\File_copy\PDF\F1\9547979\	0
9228878	F1	\\172.27.137.202\One_app_download\9228878	C:\Users\mgoas\Documents\File_copy\PDF\F1\9228878\	Empty_Folder
9298001	F1	\\172.27.137.202\One_app_download\9298001	C:\Users\mgoas\Documents\File_copy\PDF\F1\9298001\	Empty_Folder
9298009	F1	\\172.27.137.202\One_app_download\9298009	C:\Users\mgoas\Documents\File_copy\PDF\F1\9298009\	Empty_Folder
9288486	F1	\\172.27.137.202\One_app_download\9288486	C:\Users\mgoas\Documents\File_copy\PDF\F1\9288486\	Empty_Folder
9283725	F1	\\172.27.137.202\One_app_download\9283725	C:\Users\mgoas\Documents\File_copy\PDF\F1\9283725\	Empty_Folder
9291119	F1	\\172.27.137.202\One_app_download\9291119	C:\Users\mgoas\Documents\File_copy\PDF\F1\9291119\	Empty_Folder
9552992	F1	\\172.27.137.202\One_app_download\9552992	C:\Users\mgoas\Documents\File_copy\PDF\F1\9552992\	0
9218625	F1	\\172.27.137.202\One_app_download\9218625	C:\Users\mgoas\Documents\File_copy\PDF\F1\9218625\	Empty_Folder
9214035	F1	\\172.27.137.202\One_app_download\9214035	C:\Users\mgoas\Documents\File_copy\PDF\F1\9214035\	Empty_Folder
9335558	F1	\\172.27.137.202\One_app_download\9335558	C:\Users\mgoas\Documents\File_copy\PDF\F1\9335558\	Empty_Folder
9336323	F1	\\172.27.137.202\One_app_download\9336323	C:\Users\mgoas\Documents\File_copy\PDF\F1\9336323\	Empty_Folder
9445960	F1	\\172.27.137.202\One_app_download\9445960	C:\Users\mgoas\Documents\File_copy\PDF\F1\9445960\	Empty_Folder
9488703	F1	\\172.27.137.202\One_app_download\9488703	C:\Users\mgoas\Documents\File_copy\PDF\F1\9488703\	0
9549928	F1	\\172.27.137.202\One_app_download\9549928	C:\Users\mgoas\Documents\File_copy\PDF\F1\9549928\	0
9342071	F1	\\172.27.137.202\One_app_download\9342071	C:\Users\mgoas\Documents\File_copy\PDF\F1\9342071\	Empty_Folder
9358429	F1	\\172.27.137.202\One_app_download\9358429	C:\Users\mgoas\Documents\File_copy\PDF\F1\9358429\	Empty_Folder
9278874	F1	\\172.27.137.202\One_app_download\9278874	C:\Users\mgoas\Documents\File_copy\PDF\F1\9278874\	Empty_Folder
9260422	F1	\\172.27.137.202\One_app_download\9260422	C:\Users\mgoas\Documents\File_copy\PDF\F1\9260422\	Empty_Folder
9435512	F1	\\172.27.137.202\One_app_download\9435512	C:\Users\mgoas\Documents\File_copy\PDF\F1\9435512\	Empty_Folder
9427702	F1	\\172.27.137.202\One_app_download\9427702	C:\Users\mgoas\Documents\File_copy\PDF\F1\9427702\	Empty_Folder
9473250	F1	\\172.27.137.202\One_app_download\9473250	C:\Users\mgoas\Documents\File_copy\PDF\F1\9473250\	0
9558883	F1	\\172.27.137.202\One_app_download\9558883	C:\Users\mgoas\Documents\File_copy\PDF\F1\9558883\	0
9326464	F2	\\172.27.137.202\One_app_download\9326464	C:\Users\mgoas\Documents\File_copy\PDF\F2\9326464\	Empty_Folder
9326660	F2	\\172.27.137.202\One_app_download\9326660	C:\Users\mgoas\Documents\File_copy\PDF\F2\9326660\	Empty_Folder
9326663	F2	\\172.27.137.202\One_app_download\9326663	C:\Users\mgoas\Documents\File_copy\PDF\F2\9326663\	Empty_Folder
9326665	F2	\\172.27.137.202\One_app_download\9326665	C:\Users\mgoas\Documents\File_copy\PDF\F2\9326665\	Empty_Folder
9325074	F2	\\172.27.137.202\One_app_download\9325074	C:\Users\mgoas\Documents\File_copy\PDF\F2\9325074\	Empty_Folder
9325096	F2	\\172.27.137.202\One_app_download\9325096	C:\Users\mgoas\Documents\File_copy\PDF\F2\9325096\	Empty_Folder
9325097	F2	\\172.27.137.202\One_app_download\9325097	C:\Users\mgoas\Documents\File_copy\PDF\F2\9325097\	Empty_Folder
9325098	F2	\\172.27.137.202\One_app_download\9325098	C:\Users\mgoas\Documents\File_copy\PDF\F2\9325098\	Empty_Folder
9325099	F2	\\172.27.137.202\One_app_download\9325099	C:\Users\mgoas\Documents\File_copy\PDF\F2\9325099\	Empty_Folder
9325100	F2	\\172.27.137.202\One_app_download\9325100	C:\Users\mgoas\Documents\File_copy\PDF\F2\9325100\	Empty_Folder
9325104	F2	\\172.27.137.202\One_app_download\9325104	C:\Users\mgoas\Documents\File_copy\PDF\F2\9325104\	Empty_Folder
9326019	F2	\\172.27.137.202\One_app_download\9326019	C:\Users\mgoas\Documents\File_copy\PDF\F2\9326019\	Empty_Folder
9326027	F2	\\172.27.137.202\One_app_download\9326027	C:\Users\mgoas\Documents\File_copy\PDF\F2\9326027\	Empty_Folder
9326028	F2	\\172.27.137.202\One_app_download\9326028	C:\Users\mgoas\Documents\File_copy\PDF\F2\9326028\	Empty_Folder
9326030	F2	\\172.27.137.202\One_app_download\9326030	C:\Users\mgoas\Documents\File_copy\PDF\F2\9326030\	Empty_Folder
9326040	F2	\\172.27.137.202\One_app_download\9326040	C:\Users\mgoas\Documents\File_copy\PDF\F2\9326040\	Empty_Folder
9326081	F2	\\172.27.137.202\One_app_download\9326081	C:\Users\mgoas\Documents\File_copy\PDF\F2\9326081\	Empty_Folder
9326088	F2	\\172.27.137.202\One_app_download\9326088	C:\Users\mgoas\Documents\File_copy\PDF\F2\9326088\	Empty_Folder
9326089	F2	\\172.27.137.202\One_app_download\9326089	C:\Users\mgoas\Documents\File_copy\PDF\F2\9326089\	Empty_Folder
9326090	F2	\\172.27.137.202\One_app_download\9326090	C:\Users\mgoas\Documents\File_copy\PDF\F2\9326090\	Empty_Folder
9326092	F2	\\172.27.137.202\One_app_download\9326092	C:\Users\mgoas\Documents\File_copy\PDF\F2\9326092\	Empty_Folder
9326096	F2	\\172.27.137.202\One_app_download\9326096	C:\Users\mgoas\Documents\File_copy\PDF\F2\9326096\	Empty_Folder
9325754	F2	\\172.27.137.202\One_app_download\9325754	C:\Users\mgoas\Documents\File_copy\PDF\F2\9325754\	Empty_Folder
9325755	F2	\\172.27.137.202\One_app_download\9325755	C:\Users\mgoas\Documents\File_copy\PDF\F2\9325755\	Empty_Folder
9325758	F2	\\172.27.137.202\One_app_download\9325758	C:\Users\mgoas\Documents\File_copy\PDF\F2\9325758\	Empty_Folder
9325764	F2	\\172.27.137.202\One_app_download\9325764	C:\Users\mgoas\Documents\File_copy\PDF\F2\9325764\	Empty_Folder
9325766	F2	\\172.27.137.202\One_app_download\9325766	C:\Users\mgoas\Documents\File_copy\PDF\F2\9325766\	Empty_Folder
9325767	F2	\\172.27.137.202\One_app_download\9325767	C:\Users\mgoas\Documents\File_copy\PDF\F2\9325767\	Empty_Folder
9325775	F2	\\172.27.137.202\One_app_download\9325775	C:\Users\mgoas\Documents\File_copy\PDF\F2\9325775\	Empty_Folder
9325789	F2	\\172.27.137.202\One_app_download\9325789	C:\Users\mgoas\Documents\File_copy\PDF\F2\9325789\	Empty_Folder
9325801	F2	\\172.27.137.202\One_app_download\9325801	C:\Users\mgoas\Documents\File_copy\PDF\F2\9325801\	Empty_Folder
9326765	F2	\\172.27.137.202\One_app_download\9326765	C:\Users\mgoas\Documents\File_copy\PDF\F2\9326765\	Empty_Folder
9326775	F2	\\172.27.137.202\One_app_download\9326775	C:\Users\mgoas\Documents\File_copy\PDF\F2\9326775\	Empty_Folder
9326777	F2	\\172.27.137.202\One_app_download\9326777	C:\Users\mgoas\Documents\File_copy\PDF\F2\9326777\	Empty_Folder
9325250	F2	\\172.27.137.202\One_app_download\9325250	C:\Users\mgoas\Documents\File_copy\PDF\F2\9325250\	Empty_Folder
9325252	F2	\\172.27.137.202\One_app_download\9325252	C:\Users\mgoas\Documents\File_copy\PDF\F2\9325252\	Empty_Folder
9325257	F2	\\172.27.137.202\One_app_download\9325257	C:\Users\mgoas\Documents\File_copy\PDF\F2\9325257\	Empty_Folder
9325258	F2	\\172.27.137.202\One_app_download\9325258	C:\Users\mgoas\Documents\File_copy\PDF\F2\9325258\	Empty_Folder
9325259	F2	\\172.27.137.202\One_app_download\9325259	C:\Users\mgoas\Documents\File_copy\PDF\F2\9325259\	Empty_Folder
9325271	F2	\\172.27.137.202\One_app_download\9325271	C:\Users\mgoas\Documents\File_copy\PDF\F2\9325271\	Empty_Folder
9325273	F2	\\172.27.137.202\One_app_download\9325273	C:\Users\mgoas\Documents\File_copy\PDF\F2\9325273\	Empty_Folder
9325275	F2	\\172.27.137.202\One_app_download\9325275	C:\Users\mgoas\Documents\File_copy\PDF\F2\9325275\	Empty_Folder
9325274	F2	\\172.27.137.202\One_app_download\9325274	C:\Users\mgoas\Documents\File_copy\PDF\F2\9325274\	Empty_Folder
9325288	F2	\\172.27.137.202\One_app_download\9325288	C:\Users\mgoas\Documents\File_copy\PDF\F2\9325288\	Empty_Folder
9325289	F2	\\172.27.137.202\One_app_download\9325289	C:\Users\mgoas\Documents\File_copy\PDF\F2\9325289\	Empty_Folder
9325290	F2	\\172.27.137.202\One_app_download\9325290	C:\Users\mgoas\Documents\File_copy\PDF\F2\9325290\	Empty_Folder
9325294	F2	\\172.27.137.202\One_app_download\9325294	C:\Users\mgoas\Documents\File_copy\PDF\F2\9325294\	Empty_Folder
9325295	F2	\\172.27.137.202\One_app_download\9325295	C:\Users\mgoas\Documents\File_copy\PDF\F2\9325295\	Empty_Folder
9325308	F2	\\172.27.137.202\One_app_download\9325308	C:\Users\mgoas\Documents\File_copy\PDF\F2\9325308\	Empty_Folder
9325348	F2	\\172.27.137.202\One_app_download\9325348	C:\Users\mgoas\Documents\File_copy\PDF\F2\9325348\	Empty_Folder
9325352	F2	\\172.27.137.202\One_app_download\9325352	C:\Users\mgoas\Documents\File_copy\PDF\F2\9325352\	Empty_Folder
9325353	F2	\\172.27.137.202\One_app_download\9325353	C:\Users\mgoas\Documents\File_copy\PDF\F2\9325353\	Empty_Folder
9325354	F2	\\172.27.137.202\One_app_download\9325354	C:\Users\mgoas\Documents\File_copy\PDF\F2\9325354\	Empty_Folder
9325367	F2	\\172.27.137.202\One_app_download\9325367	C:\Users\mgoas\Documents\File_copy\PDF\F2\9325367\	Empty_Folder
9325368	F2	\\172.27.137.202\One_app_download\9325368	C:\Users\mgoas\Documents\File_copy\PDF\F2\9325368\	Empty_Folder
9325370	F2	\\172.27.137.202\One_app_download\9325370	C:\Users\mgoas\Documents\File_copy\PDF\F2\9325370\	Empty_Folder
9325371	F2	\\172.27.137.202\One_app_download\9325371	C:\Users\mgoas\Documents\File_copy\PDF\F2\9325371\	Empty_Folder
9325372	F2	\\172.27.137.202\One_app_download\9325372	C:\Users\mgoas\Documents\File_copy\PDF\F2\9325372\	Empty_Folder
9325389	F2	\\172.27.137.202\One_app_download\9325389	C:\Users\mgoas\Documents\File_copy\PDF\F2\9325389\	Empty_Folder
9325391	F2	\\172.27.137.202\One_app_download\9325391	C:\Users\mgoas\Documents\File_copy\PDF\F2\9325391\	Empty_Folder
9325411	F2	\\172.27.137.202\One_app_download\9325411	C:\Users\mgoas\Documents\File_copy\PDF\F2\9325411\	Empty_Folder
9325412	F2	\\172.27.137.202\One_app_download\9325412	C:\Users\mgoas\Documents\File_copy\PDF\F2\9325412\	Empty_Folder
9325413	F2	\\172.27.137.202\One_app_download\9325413	C:\Users\mgoas\Documents\File_copy\PDF\F2\9325413\	Empty_Folder
9325422	F2	\\172.27.137.202\One_app_download\9325422	C:\Users\mgoas\Documents\File_copy\PDF\F2\9325422\	Empty_Folder
9325425	F2	\\172.27.137.202\One_app_download\9325425	C:\Users\mgoas\Documents\File_copy\PDF\F2\9325425\	Empty_Folder
9325430	F2	\\172.27.137.202\One_app_download\9325430	C:\Users\mgoas\Documents\File_copy\PDF\F2\9325430\	Empty_Folder
9326619	F2	\\172.27.137.202\One_app_download\9326619	C:\Users\mgoas\Documents\File_copy\PDF\F2\9326619\	Empty_Folder
9326622	F2	\\172.27.137.202\One_app_download\9326622	C:\Users\mgoas\Documents\File_copy\PDF\F2\9326622\	Empty_Folder
9326623	F2	\\172.27.137.202\One_app_download\9326623	C:\Users\mgoas\Documents\File_copy\PDF\F2\9326623\	Empty_Folder
9326624	F2	\\172.27.137.202\One_app_download\9326624	C:\Users\mgoas\Documents\File_copy\PDF\F2\9326624\	Empty_Folder
9326634	F2	\\172.27.137.202\One_app_download\9326634	C:\Users\mgoas\Documents\File_copy\PDF\F2\9326634\	Empty_Folder
9326643	F2	\\172.27.137.202\One_app_download\9326643	C:\Users\mgoas\Documents\File_copy\PDF\F2\9326643\	Empty_Folder
9326644	F2	\\172.27.137.202\One_app_download\9326644	C:\Users\mgoas\Documents\File_copy\PDF\F2\9326644\	Empty_Folder
9326651	F2	\\172.27.137.202\One_app_download\9326651	C:\Users\mgoas\Documents\File_copy\PDF\F2\9326651\	Empty_Folder
9326654	F2	\\172.27.137.202\One_app_download\9326654	C:\Users\mgoas\Documents\File_copy\PDF\F2\9326654\	Empty_Folder
9326655	F2	\\172.27.137.202\One_app_download\9326655	C:\Users\mgoas\Documents\File_copy\PDF\F2\9326655\	Empty_Folder
9326658	F2	\\172.27.137.202\One_app_download\9326658	C:\Users\mgoas\Documents\File_copy\PDF\F2\9326658\	Empty_Folder
9326659	F2	\\172.27.137.202\One_app_download\9326659	C:\Users\mgoas\Documents\File_copy\PDF\F2\9326659\	Empty_Folder
9325726	F2	\\172.27.137.202\One_app_download\9325726	C:\Users\mgoas\Documents\File_copy\PDF\F2\9325726\	Empty_Folder
9325736	F2	\\172.27.137.202\One_app_download\9325736	C:\Users\mgoas\Documents\File_copy\PDF\F2\9325736\	Empty_Folder
9325739	F2	\\172.27.137.202\One_app_download\9325739	C:\Users\mgoas\Documents\File_copy\PDF\F2\9325739\	Empty_Folder
9325740	F2	\\172.27.137.202\One_app_download\9325740	C:\Users\mgoas\Documents\File_copy\PDF\F2\9325740\	Empty_Folder
9325742	F2	\\172.27.137.202\One_app_download\9325742	C:\Users\mgoas\Documents\File_copy\PDF\F2\9325742\	Empty_Folder
9325745	F2	\\172.27.137.202\One_app_download\9325745	C:\Users\mgoas\Documents\File_copy\PDF\F2\9325745\	Empty_Folder
9325746	F2	\\172.27.137.202\One_app_download\9325746	C:\Users\mgoas\Documents\File_copy\PDF\F2\9325746\	Empty_Folder
9325752	F2	\\172.27.137.202\One_app_download\9325752	C:\Users\mgoas\Documents\File_copy\PDF\F2\9325752\	Empty_Folder
9324721	F2	\\172.27.137.202\One_app_download\9324721	C:\Users\mgoas\Documents\File_copy\PDF\F2\9324721\	Empty_Folder
9324735	F2	\\172.27.137.202\One_app_download\9324735	C:\Users\mgoas\Documents\File_copy\PDF\F2\9324735\	Empty_Folder
9324741	F2	\\172.27.137.202\One_app_download\9324741	C:\Users\mgoas\Documents\File_copy\PDF\F2\9324741\	Empty_Folder
9324742	F2	\\172.27.137.202\One_app_download\9324742	C:\Users\mgoas\Documents\File_copy\PDF\F2\9324742\	Empty_Folder
9324768	F2	\\172.27.137.202\One_app_download\9324768	C:\Users\mgoas\Documents\File_copy\PDF\F2\9324768\	Empty_Folder
9324743	F2	\\172.27.137.202\One_app_download\9324743	C:\Users\mgoas\Documents\File_copy\PDF\F2\9324743\	Empty_Folder
9324770	F2	\\172.27.137.202\One_app_download\9324770	C:\Users\mgoas\Documents\File_copy\PDF\F2\9324770\	Empty_Folder
9324777	F2	\\172.27.137.202\One_app_download\9324777	C:\Users\mgoas\Documents\File_copy\PDF\F2\9324777\	Empty_Folder
9324779	F2	\\172.27.137.202\One_app_download\9324779	C:\Users\mgoas\Documents\File_copy\PDF\F2\9324779\	Empty_Folder
9324783	F2	\\172.27.137.202\One_app_download\9324783	C:\Users\mgoas\Documents\File_copy\PDF\F2\9324783\	Empty_Folder
9324802	F2	\\172.27.137.202\One_app_download\9324802	C:\Users\mgoas\Documents\File_copy\PDF\F2\9324802\	Empty_Folder
9324814	F2	\\172.27.137.202\One_app_download\9324814	C:\Users\mgoas\Documents\File_copy\PDF\F2\9324814\	Empty_Folder
9324816	F2	\\172.27.137.202\One_app_download\9324816	C:\Users\mgoas\Documents\File_copy\PDF\F2\9324816\	Empty_Folder
9324817	F2	\\172.27.137.202\One_app_download\9324817	C:\Users\mgoas\Documents\File_copy\PDF\F2\9324817\	Empty_Folder
9324819	F2	\\172.27.137.202\One_app_download\9324819	C:\Users\mgoas\Documents\File_copy\PDF\F2\9324819\	Empty_Folder
9324821	F2	\\172.27.137.202\One_app_download\9324821	C:\Users\mgoas\Documents\File_copy\PDF\F2\9324821\	Empty_Folder
9324823	F2	\\172.27.137.202\One_app_download\9324823	C:\Users\mgoas\Documents\File_copy\PDF\F2\9324823\	Empty_Folder
9324824	F2	\\172.27.137.202\One_app_download\9324824	C:\Users\mgoas\Documents\File_copy\PDF\F2\9324824\	Empty_Folder
9324828	F2	\\172.27.137.202\One_app_download\9324828	C:\Users\mgoas\Documents\File_copy\PDF\F2\9324828\	Empty_Folder
9324852	F2	\\172.27.137.202\One_app_download\9324852	C:\Users\mgoas\Documents\File_copy\PDF\F2\9324852\	Empty_Folder
9324863	F2	\\172.27.137.202\One_app_download\9324863	C:\Users\mgoas\Documents\File_copy\PDF\F2\9324863\	Empty_Folder
9324865	F2	\\172.27.137.202\One_app_download\9324865	C:\Users\mgoas\Documents\File_copy\PDF\F2\9324865\	Empty_Folder
9324866	F2	\\172.27.137.202\One_app_download\9324866	C:\Users\mgoas\Documents\File_copy\PDF\F2\9324866\	Empty_Folder
9324868	F2	\\172.27.137.202\One_app_download\9324868	C:\Users\mgoas\Documents\File_copy\PDF\F2\9324868\	Empty_Folder
9324870	F2	\\172.27.137.202\One_app_download\9324870	C:\Users\mgoas\Documents\File_copy\PDF\F2\9324870\	Empty_Folder
9324871	F2	\\172.27.137.202\One_app_download\9324871	C:\Users\mgoas\Documents\File_copy\PDF\F2\9324871\	Empty_Folder
9324867	F2	\\172.27.137.202\One_app_download\9324867	C:\Users\mgoas\Documents\File_copy\PDF\F2\9324867\	Empty_Folder
9324874	F2	\\172.27.137.202\One_app_download\9324874	C:\Users\mgoas\Documents\File_copy\PDF\F2\9324874\	Empty_Folder
9325838	F2	\\172.27.137.202\One_app_download\9325838	C:\Users\mgoas\Documents\File_copy\PDF\F2\9325838\	Empty_Folder
9325840	F2	\\172.27.137.202\One_app_download\9325840	C:\Users\mgoas\Documents\File_copy\PDF\F2\9325840\	Empty_Folder
9325841	F2	\\172.27.137.202\One_app_download\9325841	C:\Users\mgoas\Documents\File_copy\PDF\F2\9325841\	Empty_Folder
9325845	F2	\\172.27.137.202\One_app_download\9325845	C:\Users\mgoas\Documents\File_copy\PDF\F2\9325845\	Empty_Folder
9325852	F2	\\172.27.137.202\One_app_download\9325852	C:\Users\mgoas\Documents\File_copy\PDF\F2\9325852\	Empty_Folder
9325853	F2	\\172.27.137.202\One_app_download\9325853	C:\Users\mgoas\Documents\File_copy\PDF\F2\9325853\	Empty_Folder
9325872	F2	\\172.27.137.202\One_app_download\9325872	C:\Users\mgoas\Documents\File_copy\PDF\F2\9325872\	Empty_Folder
9325873	F2	\\172.27.137.202\One_app_download\9325873	C:\Users\mgoas\Documents\File_copy\PDF\F2\9325873\	Empty_Folder
9325875	F2	\\172.27.137.202\One_app_download\9325875	C:\Users\mgoas\Documents\File_copy\PDF\F2\9325875\	Empty_Folder
9325877	F2	\\172.27.137.202\One_app_download\9325877	C:\Users\mgoas\Documents\File_copy\PDF\F2\9325877\	Empty_Folder
9325885	F2	\\172.27.137.202\One_app_download\9325885	C:\Users\mgoas\Documents\File_copy\PDF\F2\9325885\	Empty_Folder
9325887	F2	\\172.27.137.202\One_app_download\9325887	C:\Users\mgoas\Documents\File_copy\PDF\F2\9325887\	Empty_Folder
9325897	F2	\\172.27.137.202\One_app_download\9325897	C:\Users\mgoas\Documents\File_copy\PDF\F2\9325897\	Empty_Folder
9325935	F2	\\172.27.137.202\One_app_download\9325935	C:\Users\mgoas\Documents\File_copy\PDF\F2\9325935\	Empty_Folder
9325936	F2	\\172.27.137.202\One_app_download\9325936	C:\Users\mgoas\Documents\File_copy\PDF\F2\9325936\	Empty_Folder
9325946	F2	\\172.27.137.202\One_app_download\9325946	C:\Users\mgoas\Documents\File_copy\PDF\F2\9325946\	Empty_Folder
9325753	F2	\\172.27.137.202\One_app_download\9325753	C:\Users\mgoas\Documents\File_copy\PDF\F2\9325753\	Empty_Folder
9324686	F2	\\172.27.137.202\One_app_download\9324686	C:\Users\mgoas\Documents\File_copy\PDF\F2\9324686\	Empty_Folder
9324688	F2	\\172.27.137.202\One_app_download\9324688	C:\Users\mgoas\Documents\File_copy\PDF\F2\9324688\	Empty_Folder
9324693	F2	\\172.27.137.202\One_app_download\9324693	C:\Users\mgoas\Documents\File_copy\PDF\F2\9324693\	Empty_Folder
9325695	F2	\\172.27.137.202\One_app_download\9325695	C:\Users\mgoas\Documents\File_copy\PDF\F2\9325695\	Empty_Folder
9325778	F2	\\172.27.137.202\One_app_download\9325778	C:\Users\mgoas\Documents\File_copy\PDF\F2\9325778\	Empty_Folder
9325781	F2	\\172.27.137.202\One_app_download\9325781	C:\Users\mgoas\Documents\File_copy\PDF\F2\9325781\	Empty_Folder
9326574	F2	\\172.27.137.202\One_app_download\9326574	C:\Users\mgoas\Documents\File_copy\PDF\F2\9326574\	Empty_Folder
9326575	F2	\\172.27.137.202\One_app_download\9326575	C:\Users\mgoas\Documents\File_copy\PDF\F2\9326575\	Empty_Folder
9325654	F2	\\172.27.137.202\One_app_download\9325654	C:\Users\mgoas\Documents\File_copy\PDF\F2\9325654\	Empty_Folder
9325689	F2	\\172.27.137.202\One_app_download\9325689	C:\Users\mgoas\Documents\File_copy\PDF\F2\9325689\	Empty_Folder
9325691	F2	\\172.27.137.202\One_app_download\9325691	C:\Users\mgoas\Documents\File_copy\PDF\F2\9325691\	Empty_Folder
9325694	F2	\\172.27.137.202\One_app_download\9325694	C:\Users\mgoas\Documents\File_copy\PDF\F2\9325694\	Empty_Folder
9326626	F2	\\172.27.137.202\One_app_download\9326626	C:\Users\mgoas\Documents\File_copy\PDF\F2\9326626\	Empty_Folder
9326627	F2	\\172.27.137.202\One_app_download\9326627	C:\Users\mgoas\Documents\File_copy\PDF\F2\9326627\	Empty_Folder
9326629	F2	\\172.27.137.202\One_app_download\9326629	C:\Users\mgoas\Documents\File_copy\PDF\F2\9326629\	Empty_Folder
9326630	F2	\\172.27.137.202\One_app_download\9326630	C:\Users\mgoas\Documents\File_copy\PDF\F2\9326630\	Empty_Folder
9326631	F2	\\172.27.137.202\One_app_download\9326631	C:\Users\mgoas\Documents\File_copy\PDF\F2\9326631\	Empty_Folder
9324532	F2	\\172.27.137.202\One_app_download\9324532	C:\Users\mgoas\Documents\File_copy\PDF\F2\9324532\	Empty_Folder
9324533	F2	\\172.27.137.202\One_app_download\9324533	C:\Users\mgoas\Documents\File_copy\PDF\F2\9324533\	Empty_Folder
9324534	F2	\\172.27.137.202\One_app_download\9324534	C:\Users\mgoas\Documents\File_copy\PDF\F2\9324534\	Empty_Folder
9324615	F2	\\172.27.137.202\One_app_download\9324615	C:\Users\mgoas\Documents\File_copy\PDF\F2\9324615\	Empty_Folder
9324616	F2	\\172.27.137.202\One_app_download\9324616	C:\Users\mgoas\Documents\File_copy\PDF\F2\9324616\	Empty_Folder
9324617	F2	\\172.27.137.202\One_app_download\9324617	C:\Users\mgoas\Documents\File_copy\PDF\F2\9324617\	Empty_Folder
9324706	F2	\\172.27.137.202\One_app_download\9324706	C:\Users\mgoas\Documents\File_copy\PDF\F2\9324706\	Empty_Folder
9325622	F2	\\172.27.137.202\One_app_download\9325622	C:\Users\mgoas\Documents\File_copy\PDF\F2\9325622\	Empty_Folder
9325655	F2	\\172.27.137.202\One_app_download\9325655	C:\Users\mgoas\Documents\File_copy\PDF\F2\9325655\	Empty_Folder
9325661	F2	\\172.27.137.202\One_app_download\9325661	C:\Users\mgoas\Documents\File_copy\PDF\F2\9325661\	Empty_Folder
9325658	F2	\\172.27.137.202\One_app_download\9325658	C:\Users\mgoas\Documents\File_copy\PDF\F2\9325658\	Empty_Folder
9326834	F2	\\172.27.137.202\One_app_download\9326834	C:\Users\mgoas\Documents\File_copy\PDF\F2\9326834\	Empty_Folder
9324890	F2	\\172.27.137.202\One_app_download\9324890	C:\Users\mgoas\Documents\File_copy\PDF\F2\9324890\	Empty_Folder
9324895	F2	\\172.27.137.202\One_app_download\9324895	C:\Users\mgoas\Documents\File_copy\PDF\F2\9324895\	Empty_Folder
9324897	F2	\\172.27.137.202\One_app_download\9324897	C:\Users\mgoas\Documents\File_copy\PDF\F2\9324897\	Empty_Folder
9324899	F2	\\172.27.137.202\One_app_download\9324899	C:\Users\mgoas\Documents\File_copy\PDF\F2\9324899\	Empty_Folder
9324900	F2	\\172.27.137.202\One_app_download\9324900	C:\Users\mgoas\Documents\File_copy\PDF\F2\9324900\	Empty_Folder
9325670	F2	\\172.27.137.202\One_app_download\9325670	C:\Users\mgoas\Documents\File_copy\PDF\F2\9325670\	Empty_Folder
9325671	F2	\\172.27.137.202\One_app_download\9325671	C:\Users\mgoas\Documents\File_copy\PDF\F2\9325671\	Empty_Folder
9325669	F2	\\172.27.137.202\One_app_download\9325669	C:\Users\mgoas\Documents\File_copy\PDF\F2\9325669\	Empty_Folder
9326470	F2	\\172.27.137.202\One_app_download\9326470	C:\Users\mgoas\Documents\File_copy\PDF\F2\9326470\	Empty_Folder
9325797	F2	\\172.27.137.202\One_app_download\9325797	C:\Users\mgoas\Documents\File_copy\PDF\F2\9325797\	Empty_Folder
9324826	F2	\\172.27.137.202\One_app_download\9324826	C:\Users\mgoas\Documents\File_copy\PDF\F2\9324826\	Empty_Folder
9325675	F2	\\172.27.137.202\One_app_download\9325675	C:\Users\mgoas\Documents\File_copy\PDF\F2\9325675\	Empty_Folder
9325677	F2	\\172.27.137.202\One_app_download\9325677	C:\Users\mgoas\Documents\File_copy\PDF\F2\9325677\	Empty_Folder
9325678	F2	\\172.27.137.202\One_app_download\9325678	C:\Users\mgoas\Documents\File_copy\PDF\F2\9325678\	Empty_Folder
9325679	F2	\\172.27.137.202\One_app_download\9325679	C:\Users\mgoas\Documents\File_copy\PDF\F2\9325679\	Empty_Folder
9325680	F2	\\172.27.137.202\One_app_download\9325680	C:\Users\mgoas\Documents\File_copy\PDF\F2\9325680\	Empty_Folder
9325682	F2	\\172.27.137.202\One_app_download\9325682	C:\Users\mgoas\Documents\File_copy\PDF\F2\9325682\	Empty_Folder
9325687	F2	\\172.27.137.202\One_app_download\9325687	C:\Users\mgoas\Documents\File_copy\PDF\F2\9325687\	Empty_Folder
9325702	F2	\\172.27.137.202\One_app_download\9325702	C:\Users\mgoas\Documents\File_copy\PDF\F2\9325702\	Empty_Folder
9325704	F2	\\172.27.137.202\One_app_download\9325704	C:\Users\mgoas\Documents\File_copy\PDF\F2\9325704\	Empty_Folder
9325712	F2	\\172.27.137.202\One_app_download\9325712	C:\Users\mgoas\Documents\File_copy\PDF\F2\9325712\	Empty_Folder
9325715	F2	\\172.27.137.202\One_app_download\9325715	C:\Users\mgoas\Documents\File_copy\PDF\F2\9325715\	Empty_Folder
9325722	F2	\\172.27.137.202\One_app_download\9325722	C:\Users\mgoas\Documents\File_copy\PDF\F2\9325722\	Empty_Folder
9325723	F2	\\172.27.137.202\One_app_download\9325723	C:\Users\mgoas\Documents\File_copy\PDF\F2\9325723\	Empty_Folder
9325724	F2	\\172.27.137.202\One_app_download\9325724	C:\Users\mgoas\Documents\File_copy\PDF\F2\9325724\	Empty_Folder
9325128	F2	\\172.27.137.202\One_app_download\9325128	C:\Users\mgoas\Documents\File_copy\PDF\F2\9325128\	Empty_Folder
9325129	F2	\\172.27.137.202\One_app_download\9325129	C:\Users\mgoas\Documents\File_copy\PDF\F2\9325129\	Empty_Folder
9325239	F2	\\172.27.137.202\One_app_download\9325239	C:\Users\mgoas\Documents\File_copy\PDF\F2\9325239\	Empty_Folder
9325240	F2	\\172.27.137.202\One_app_download\9325240	C:\Users\mgoas\Documents\File_copy\PDF\F2\9325240\	Empty_Folder
9325242	F2	\\172.27.137.202\One_app_download\9325242	C:\Users\mgoas\Documents\File_copy\PDF\F2\9325242\	Empty_Folder
9326398	F2	\\172.27.137.202\One_app_download\9326398	C:\Users\mgoas\Documents\File_copy\PDF\F2\9326398\	Empty_Folder
9326399	F2	\\172.27.137.202\One_app_download\9326399	C:\Users\mgoas\Documents\File_copy\PDF\F2\9326399\	Empty_Folder
9326429	F2	\\172.27.137.202\One_app_download\9326429	C:\Users\mgoas\Documents\File_copy\PDF\F2\9326429\	Empty_Folder
9326549	F2	\\172.27.137.202\One_app_download\9326549	C:\Users\mgoas\Documents\File_copy\PDF\F2\9326549\	Empty_Folder
9326565	F2	\\172.27.137.202\One_app_download\9326565	C:\Users\mgoas\Documents\File_copy\PDF\F2\9326565\	Empty_Folder
9326571	F2	\\172.27.137.202\One_app_download\9326571	C:\Users\mgoas\Documents\File_copy\PDF\F2\9326571\	Empty_Folder
9326573	F2	\\172.27.137.202\One_app_download\9326573	C:\Users\mgoas\Documents\File_copy\PDF\F2\9326573\	Empty_Folder
9326568	F2	\\172.27.137.202\One_app_download\9326568	C:\Users\mgoas\Documents\File_copy\PDF\F2\9326568\	Empty_Folder
9324521	F2	\\172.27.137.202\One_app_download\9324521	C:\Users\mgoas\Documents\File_copy\PDF\F2\9324521\	Empty_Folder
9324522	F2	\\172.27.137.202\One_app_download\9324522	C:\Users\mgoas\Documents\File_copy\PDF\F2\9324522\	Empty_Folder
9324529	F2	\\172.27.137.202\One_app_download\9324529	C:\Users\mgoas\Documents\File_copy\PDF\F2\9324529\	Empty_Folder
9324531	F2	\\172.27.137.202\One_app_download\9324531	C:\Users\mgoas\Documents\File_copy\PDF\F2\9324531\	Empty_Folder
9324544	F2	\\172.27.137.202\One_app_download\9324544	C:\Users\mgoas\Documents\File_copy\PDF\F2\9324544\	Empty_Folder
9324545	F2	\\172.27.137.202\One_app_download\9324545	C:\Users\mgoas\Documents\File_copy\PDF\F2\9324545\	Empty_Folder
9324546	F2	\\172.27.137.202\One_app_download\9324546	C:\Users\mgoas\Documents\File_copy\PDF\F2\9324546\	Empty_Folder
9324581	F2	\\172.27.137.202\One_app_download\9324581	C:\Users\mgoas\Documents\File_copy\PDF\F2\9324581\	Empty_Folder
9324588	F2	\\172.27.137.202\One_app_download\9324588	C:\Users\mgoas\Documents\File_copy\PDF\F2\9324588\	Empty_Folder
9324620	F2	\\172.27.137.202\One_app_download\9324620	C:\Users\mgoas\Documents\File_copy\PDF\F2\9324620\	Empty_Folder
9324651	F2	\\172.27.137.202\One_app_download\9324651	C:\Users\mgoas\Documents\File_copy\PDF\F2\9324651\	Empty_Folder
9324653	F2	\\172.27.137.202\One_app_download\9324653	C:\Users\mgoas\Documents\File_copy\PDF\F2\9324653\	Empty_Folder
9324678	F2	\\172.27.137.202\One_app_download\9324678	C:\Users\mgoas\Documents\File_copy\PDF\F2\9324678\	Empty_Folder
9324683	F2	\\172.27.137.202\One_app_download\9324683	C:\Users\mgoas\Documents\File_copy\PDF\F2\9324683\	Empty_Folder
9324674	F2	\\172.27.137.202\One_app_download\9324674	C:\Users\mgoas\Documents\File_copy\PDF\F2\9324674\	Empty_Folder
9324245	F2	\\172.27.137.202\One_app_download\9324245	C:\Users\mgoas\Documents\File_copy\PDF\F2\9324245\	Empty_Folder
9324249	F2	\\172.27.137.202\One_app_download\9324249	C:\Users\mgoas\Documents\File_copy\PDF\F2\9324249\	Empty_Folder
9324254	F2	\\172.27.137.202\One_app_download\9324254	C:\Users\mgoas\Documents\File_copy\PDF\F2\9324254\	Empty_Folder
9324676	F2	\\172.27.137.202\One_app_download\9324676	C:\Users\mgoas\Documents\File_copy\PDF\F2\9324676\	Empty_Folder
9324677	F2	\\172.27.137.202\One_app_download\9324677	C:\Users\mgoas\Documents\File_copy\PDF\F2\9324677\	Empty_Folder
9325263	F2	\\172.27.137.202\One_app_download\9325263	C:\Users\mgoas\Documents\File_copy\PDF\F2\9325263\	Empty_Folder
9325279	F2	\\172.27.137.202\One_app_download\9325279	C:\Users\mgoas\Documents\File_copy\PDF\F2\9325279\	Empty_Folder
9325280	F2	\\172.27.137.202\One_app_download\9325280	C:\Users\mgoas\Documents\File_copy\PDF\F2\9325280\	Empty_Folder
9325282	F2	\\172.27.137.202\One_app_download\9325282	C:\Users\mgoas\Documents\File_copy\PDF\F2\9325282\	Empty_Folder
9325283	F2	\\172.27.137.202\One_app_download\9325283	C:\Users\mgoas\Documents\File_copy\PDF\F2\9325283\	Empty_Folder
9325321	F2	\\172.27.137.202\One_app_download\9325321	C:\Users\mgoas\Documents\File_copy\PDF\F2\9325321\	Empty_Folder
9326213	F2	\\172.27.137.202\One_app_download\9326213	C:\Users\mgoas\Documents\File_copy\PDF\F2\9326213\	Empty_Folder
9326244	F2	\\172.27.137.202\One_app_download\9326244	C:\Users\mgoas\Documents\File_copy\PDF\F2\9326244\	Empty_Folder
9326246	F2	\\172.27.137.202\One_app_download\9326246	C:\Users\mgoas\Documents\File_copy\PDF\F2\9326246\	Empty_Folder
9326247	F2	\\172.27.137.202\One_app_download\9326247	C:\Users\mgoas\Documents\File_copy\PDF\F2\9326247\	Empty_Folder
9326333	F2	\\172.27.137.202\One_app_download\9326333	C:\Users\mgoas\Documents\File_copy\PDF\F2\9326333\	Empty_Folder
9326334	F2	\\172.27.137.202\One_app_download\9326334	C:\Users\mgoas\Documents\File_copy\PDF\F2\9326334\	Empty_Folder
9325080	F2	\\172.27.137.202\One_app_download\9325080	C:\Users\mgoas\Documents\File_copy\PDF\F2\9325080\	Empty_Folder
9315955	F2	\\172.27.137.202\One_app_download\9315955	C:\Users\mgoas\Documents\File_copy\PDF\F2\9315955\	Empty_Folder
9315961	F2	\\172.27.137.202\One_app_download\9315961	C:\Users\mgoas\Documents\File_copy\PDF\F2\9315961\	Empty_Folder
9315967	F2	\\172.27.137.202\One_app_download\9315967	C:\Users\mgoas\Documents\File_copy\PDF\F2\9315967\	Empty_Folder
9315970	F2	\\172.27.137.202\One_app_download\9315970	C:\Users\mgoas\Documents\File_copy\PDF\F2\9315970\	Empty_Folder
9315971	F2	\\172.27.137.202\One_app_download\9315971	C:\Users\mgoas\Documents\File_copy\PDF\F2\9315971\	Empty_Folder
9315972	F2	\\172.27.137.202\One_app_download\9315972	C:\Users\mgoas\Documents\File_copy\PDF\F2\9315972\	Empty_Folder
9315975	F2	\\172.27.137.202\One_app_download\9315975	C:\Users\mgoas\Documents\File_copy\PDF\F2\9315975\	Empty_Folder
9315976	F2	\\172.27.137.202\One_app_download\9315976	C:\Users\mgoas\Documents\File_copy\PDF\F2\9315976\	Empty_Folder
9315977	F2	\\172.27.137.202\One_app_download\9315977	C:\Users\mgoas\Documents\File_copy\PDF\F2\9315977\	Empty_Folder
9324267	F2	\\172.27.137.202\One_app_download\9324267	C:\Users\mgoas\Documents\File_copy\PDF\F2\9324267\	Empty_Folder
9324292	F2	\\172.27.137.202\One_app_download\9324292	C:\Users\mgoas\Documents\File_copy\PDF\F2\9324292\	Empty_Folder
9324296	F2	\\172.27.137.202\One_app_download\9324296	C:\Users\mgoas\Documents\File_copy\PDF\F2\9324296\	Empty_Folder
9316422	F2	\\172.27.137.202\One_app_download\9316422	C:\Users\mgoas\Documents\File_copy\PDF\F2\9316422\	Empty_Folder
9324326	F2	\\172.27.137.202\One_app_download\9324326	C:\Users\mgoas\Documents\File_copy\PDF\F2\9324326\	Empty_Folder
9324327	F2	\\172.27.137.202\One_app_download\9324327	C:\Users\mgoas\Documents\File_copy\PDF\F2\9324327\	Empty_Folder
9315995	F2	\\172.27.137.202\One_app_download\9315995	C:\Users\mgoas\Documents\File_copy\PDF\F2\9315995\	Empty_Folder
9315996	F2	\\172.27.137.202\One_app_download\9315996	C:\Users\mgoas\Documents\File_copy\PDF\F2\9315996\	Empty_Folder
9316004	F2	\\172.27.137.202\One_app_download\9316004	C:\Users\mgoas\Documents\File_copy\PDF\F2\9316004\	Empty_Folder
9316006	F2	\\172.27.137.202\One_app_download\9316006	C:\Users\mgoas\Documents\File_copy\PDF\F2\9316006\	Empty_Folder
9310922	F2	\\172.27.137.202\One_app_download\9310922	C:\Users\mgoas\Documents\File_copy\PDF\F2\9310922\	Empty_Folder
9324337	F2	\\172.27.137.202\One_app_download\9324337	C:\Users\mgoas\Documents\File_copy\PDF\F2\9324337\	Empty_Folder
9324345	F2	\\172.27.137.202\One_app_download\9324345	C:\Users\mgoas\Documents\File_copy\PDF\F2\9324345\	Empty_Folder
9325313	F2	\\172.27.137.202\One_app_download\9325313	C:\Users\mgoas\Documents\File_copy\PDF\F2\9325313\	Empty_Folder
9325082	F2	\\172.27.137.202\One_app_download\9325082	C:\Users\mgoas\Documents\File_copy\PDF\F2\9325082\	Empty_Folder
9325083	F2	\\172.27.137.202\One_app_download\9325083	C:\Users\mgoas\Documents\File_copy\PDF\F2\9325083\	Empty_Folder
9325115	F2	\\172.27.137.202\One_app_download\9325115	C:\Users\mgoas\Documents\File_copy\PDF\F2\9325115\	Empty_Folder
9325117	F2	\\172.27.137.202\One_app_download\9325117	C:\Users\mgoas\Documents\File_copy\PDF\F2\9325117\	Empty_Folder
9325844	F2	\\172.27.137.202\One_app_download\9325844	C:\Users\mgoas\Documents\File_copy\PDF\F2\9325844\	Empty_Folder
9326845	F2	\\172.27.137.202\One_app_download\9326845	C:\Users\mgoas\Documents\File_copy\PDF\F2\9326845\	Empty_Folder
9326846	F2	\\172.27.137.202\One_app_download\9326846	C:\Users\mgoas\Documents\File_copy\PDF\F2\9326846\	Empty_Folder
9326849	F2	\\172.27.137.202\One_app_download\9326849	C:\Users\mgoas\Documents\File_copy\PDF\F2\9326849\	Empty_Folder
9326850	F2	\\172.27.137.202\One_app_download\9326850	C:\Users\mgoas\Documents\File_copy\PDF\F2\9326850\	Empty_Folder
9326860	F2	\\172.27.137.202\One_app_download\9326860	C:\Users\mgoas\Documents\File_copy\PDF\F2\9326860\	Empty_Folder
9326868	F2	\\172.27.137.202\One_app_download\9326868	C:\Users\mgoas\Documents\File_copy\PDF\F2\9326868\	Empty_Folder
9325854	F2	\\172.27.137.202\One_app_download\9325854	C:\Users\mgoas\Documents\File_copy\PDF\F2\9325854\	Empty_Folder
9325084	F2	\\172.27.137.202\One_app_download\9325084	C:\Users\mgoas\Documents\File_copy\PDF\F2\9325084\	Empty_Folder
9324535	F2	\\172.27.137.202\One_app_download\9324535	C:\Users\mgoas\Documents\File_copy\PDF\F2\9324535\	Empty_Folder
9324557	F2	\\172.27.137.202\One_app_download\9324557	C:\Users\mgoas\Documents\File_copy\PDF\F2\9324557\	Empty_Folder
9324558	F2	\\172.27.137.202\One_app_download\9324558	C:\Users\mgoas\Documents\File_copy\PDF\F2\9324558\	Empty_Folder
9325855	F2	\\172.27.137.202\One_app_download\9325855	C:\Users\mgoas\Documents\File_copy\PDF\F2\9325855\	Empty_Folder
9325856	F2	\\172.27.137.202\One_app_download\9325856	C:\Users\mgoas\Documents\File_copy\PDF\F2\9325856\	Empty_Folder
9325857	F2	\\172.27.137.202\One_app_download\9325857	C:\Users\mgoas\Documents\File_copy\PDF\F2\9325857\	Empty_Folder
9325859	F2	\\172.27.137.202\One_app_download\9325859	C:\Users\mgoas\Documents\File_copy\PDF\F2\9325859\	Empty_Folder
9325860	F2	\\172.27.137.202\One_app_download\9325860	C:\Users\mgoas\Documents\File_copy\PDF\F2\9325860\	Empty_Folder
9325861	F2	\\172.27.137.202\One_app_download\9325861	C:\Users\mgoas\Documents\File_copy\PDF\F2\9325861\	Empty_Folder
9325902	F2	\\172.27.137.202\One_app_download\9325902	C:\Users\mgoas\Documents\File_copy\PDF\F2\9325902\	Empty_Folder
9325908	F2	\\172.27.137.202\One_app_download\9325908	C:\Users\mgoas\Documents\File_copy\PDF\F2\9325908\	Empty_Folder
9325937	F2	\\172.27.137.202\One_app_download\9325937	C:\Users\mgoas\Documents\File_copy\PDF\F2\9325937\	Empty_Folder
9325604	F2	\\172.27.137.202\One_app_download\9325604	C:\Users\mgoas\Documents\File_copy\PDF\F2\9325604\	Empty_Folder
9325606	F2	\\172.27.137.202\One_app_download\9325606	C:\Users\mgoas\Documents\File_copy\PDF\F2\9325606\	Empty_Folder
9325607	F2	\\172.27.137.202\One_app_download\9325607	C:\Users\mgoas\Documents\File_copy\PDF\F2\9325607\	Empty_Folder
9324911	F2	\\172.27.137.202\One_app_download\9324911	C:\Users\mgoas\Documents\File_copy\PDF\F2\9324911\	Empty_Folder
9324912	F2	\\172.27.137.202\One_app_download\9324912	C:\Users\mgoas\Documents\File_copy\PDF\F2\9324912\	Empty_Folder
9324930	F2	\\172.27.137.202\One_app_download\9324930	C:\Users\mgoas\Documents\File_copy\PDF\F2\9324930\	Empty_Folder
9324932	F2	\\172.27.137.202\One_app_download\9324932	C:\Users\mgoas\Documents\File_copy\PDF\F2\9324932\	Empty_Folder
9324963	F2	\\172.27.137.202\One_app_download\9324963	C:\Users\mgoas\Documents\File_copy\PDF\F2\9324963\	Empty_Folder
9324970	F2	\\172.27.137.202\One_app_download\9324970	C:\Users\mgoas\Documents\File_copy\PDF\F2\9324970\	Empty_Folder
9324978	F2	\\172.27.137.202\One_app_download\9324978	C:\Users\mgoas\Documents\File_copy\PDF\F2\9324978\	Empty_Folder
9324981	F2	\\172.27.137.202\One_app_download\9324981	C:\Users\mgoas\Documents\File_copy\PDF\F2\9324981\	Empty_Folder
9326055	F2	\\172.27.137.202\One_app_download\9326055	C:\Users\mgoas\Documents\File_copy\PDF\F2\9326055\	Empty_Folder
9325001	F2	\\172.27.137.202\One_app_download\9325001	C:\Users\mgoas\Documents\File_copy\PDF\F2\9325001\	Empty_Folder
9325002	F2	\\172.27.137.202\One_app_download\9325002	C:\Users\mgoas\Documents\File_copy\PDF\F2\9325002\	Empty_Folder
9325031	F2	\\172.27.137.202\One_app_download\9325031	C:\Users\mgoas\Documents\File_copy\PDF\F2\9325031\	Empty_Folder
9326018	F2	\\172.27.137.202\One_app_download\9326018	C:\Users\mgoas\Documents\File_copy\PDF\F2\9326018\	Empty_Folder
9326031	F2	\\172.27.137.202\One_app_download\9326031	C:\Users\mgoas\Documents\File_copy\PDF\F2\9326031\	Empty_Folder
9326036	F2	\\172.27.137.202\One_app_download\9326036	C:\Users\mgoas\Documents\File_copy\PDF\F2\9326036\	Empty_Folder
9326054	F2	\\172.27.137.202\One_app_download\9326054	C:\Users\mgoas\Documents\File_copy\PDF\F2\9326054\	Empty_Folder
9326056	F2	\\172.27.137.202\One_app_download\9326056	C:\Users\mgoas\Documents\File_copy\PDF\F2\9326056\	Empty_Folder
9326061	F2	\\172.27.137.202\One_app_download\9326061	C:\Users\mgoas\Documents\File_copy\PDF\F2\9326061\	Empty_Folder
9326116	F2	\\172.27.137.202\One_app_download\9326116	C:\Users\mgoas\Documents\File_copy\PDF\F2\9326116\	Empty_Folder
9326118	F2	\\172.27.137.202\One_app_download\9326118	C:\Users\mgoas\Documents\File_copy\PDF\F2\9326118\	Empty_Folder
9326119	F2	\\172.27.137.202\One_app_download\9326119	C:\Users\mgoas\Documents\File_copy\PDF\F2\9326119\	Empty_Folder
9326120	F2	\\172.27.137.202\One_app_download\9326120	C:\Users\mgoas\Documents\File_copy\PDF\F2\9326120\	Empty_Folder
9326121	F2	\\172.27.137.202\One_app_download\9326121	C:\Users\mgoas\Documents\File_copy\PDF\F2\9326121\	Empty_Folder
9326122	F2	\\172.27.137.202\One_app_download\9326122	C:\Users\mgoas\Documents\File_copy\PDF\F2\9326122\	Empty_Folder
9326142	F2	\\172.27.137.202\One_app_download\9326142	C:\Users\mgoas\Documents\File_copy\PDF\F2\9326142\	Empty_Folder
9326145	F2	\\172.27.137.202\One_app_download\9326145	C:\Users\mgoas\Documents\File_copy\PDF\F2\9326145\	Empty_Folder
9326146	F2	\\172.27.137.202\One_app_download\9326146	C:\Users\mgoas\Documents\File_copy\PDF\F2\9326146\	Empty_Folder
9326148	F2	\\172.27.137.202\One_app_download\9326148	C:\Users\mgoas\Documents\File_copy\PDF\F2\9326148\	Empty_Folder
9326149	F2	\\172.27.137.202\One_app_download\9326149	C:\Users\mgoas\Documents\File_copy\PDF\F2\9326149\	Empty_Folder
9326150	F2	\\172.27.137.202\One_app_download\9326150	C:\Users\mgoas\Documents\File_copy\PDF\F2\9326150\	Empty_Folder
9326162	F2	\\172.27.137.202\One_app_download\9326162	C:\Users\mgoas\Documents\File_copy\PDF\F2\9326162\	Empty_Folder
9324444	F2	\\172.27.137.202\One_app_download\9324444	C:\Users\mgoas\Documents\File_copy\PDF\F2\9324444\	Empty_Folder
9324445	F2	\\172.27.137.202\One_app_download\9324445	C:\Users\mgoas\Documents\File_copy\PDF\F2\9324445\	Empty_Folder
9324464	F2	\\172.27.137.202\One_app_download\9324464	C:\Users\mgoas\Documents\File_copy\PDF\F2\9324464\	Empty_Folder
9324466	F2	\\172.27.137.202\One_app_download\9324466	C:\Users\mgoas\Documents\File_copy\PDF\F2\9324466\	Empty_Folder
9324469	F2	\\172.27.137.202\One_app_download\9324469	C:\Users\mgoas\Documents\File_copy\PDF\F2\9324469\	Empty_Folder
9324474	F2	\\172.27.137.202\One_app_download\9324474	C:\Users\mgoas\Documents\File_copy\PDF\F2\9324474\	Empty_Folder
9324475	F2	\\172.27.137.202\One_app_download\9324475	C:\Users\mgoas\Documents\File_copy\PDF\F2\9324475\	Empty_Folder
9324478	F2	\\172.27.137.202\One_app_download\9324478	C:\Users\mgoas\Documents\File_copy\PDF\F2\9324478\	Empty_Folder
9324497	F2	\\172.27.137.202\One_app_download\9324497	C:\Users\mgoas\Documents\File_copy\PDF\F2\9324497\	Empty_Folder
9324498	F2	\\172.27.137.202\One_app_download\9324498	C:\Users\mgoas\Documents\File_copy\PDF\F2\9324498\	Empty_Folder
9324502	F2	\\172.27.137.202\One_app_download\9324502	C:\Users\mgoas\Documents\File_copy\PDF\F2\9324502\	Empty_Folder
9324518	F2	\\172.27.137.202\One_app_download\9324518	C:\Users\mgoas\Documents\File_copy\PDF\F2\9324518\	Empty_Folder
9325438	F2	\\172.27.137.202\One_app_download\9325438	C:\Users\mgoas\Documents\File_copy\PDF\F2\9325438\	Empty_Folder
9325439	F2	\\172.27.137.202\One_app_download\9325439	C:\Users\mgoas\Documents\File_copy\PDF\F2\9325439\	Empty_Folder
9325459	F2	\\172.27.137.202\One_app_download\9325459	C:\Users\mgoas\Documents\File_copy\PDF\F2\9325459\	Empty_Folder
9325460	F2	\\172.27.137.202\One_app_download\9325460	C:\Users\mgoas\Documents\File_copy\PDF\F2\9325460\	Empty_Folder
9325465	F2	\\172.27.137.202\One_app_download\9325465	C:\Users\mgoas\Documents\File_copy\PDF\F2\9325465\	Empty_Folder
9325466	F2	\\172.27.137.202\One_app_download\9325466	C:\Users\mgoas\Documents\File_copy\PDF\F2\9325466\	Empty_Folder
9325468	F2	\\172.27.137.202\One_app_download\9325468	C:\Users\mgoas\Documents\File_copy\PDF\F2\9325468\	Empty_Folder
9325536	F2	\\172.27.137.202\One_app_download\9325536	C:\Users\mgoas\Documents\File_copy\PDF\F2\9325536\	Empty_Folder
9325545	F2	\\172.27.137.202\One_app_download\9325545	C:\Users\mgoas\Documents\File_copy\PDF\F2\9325545\	Empty_Folder
9325471	F2	\\172.27.137.202\One_app_download\9325471	C:\Users\mgoas\Documents\File_copy\PDF\F2\9325471\	Empty_Folder
9325548	F2	\\172.27.137.202\One_app_download\9325548	C:\Users\mgoas\Documents\File_copy\PDF\F2\9325548\	Empty_Folder
9325566	F2	\\172.27.137.202\One_app_download\9325566	C:\Users\mgoas\Documents\File_copy\PDF\F2\9325566\	Empty_Folder
9325603	F2	\\172.27.137.202\One_app_download\9325603	C:\Users\mgoas\Documents\File_copy\PDF\F2\9325603\	Empty_Folder
9324736	F2	\\172.27.137.202\One_app_download\9324736	C:\Users\mgoas\Documents\File_copy\PDF\F2\9324736\	Empty_Folder
9324737	F2	\\172.27.137.202\One_app_download\9324737	C:\Users\mgoas\Documents\File_copy\PDF\F2\9324737\	Empty_Folder
9324739	F2	\\172.27.137.202\One_app_download\9324739	C:\Users\mgoas\Documents\File_copy\PDF\F2\9324739\	Empty_Folder
9324753	F2	\\172.27.137.202\One_app_download\9324753	C:\Users\mgoas\Documents\File_copy\PDF\F2\9324753\	Empty_Folder
9324769	F2	\\172.27.137.202\One_app_download\9324769	C:\Users\mgoas\Documents\File_copy\PDF\F2\9324769\	Empty_Folder
9324771	F2	\\172.27.137.202\One_app_download\9324771	C:\Users\mgoas\Documents\File_copy\PDF\F2\9324771\	Empty_Folder
9324774	F2	\\172.27.137.202\One_app_download\9324774	C:\Users\mgoas\Documents\File_copy\PDF\F2\9324774\	Empty_Folder
9324776	F2	\\172.27.137.202\One_app_download\9324776	C:\Users\mgoas\Documents\File_copy\PDF\F2\9324776\	Empty_Folder
9325225	F2	\\172.27.137.202\One_app_download\9325225	C:\Users\mgoas\Documents\File_copy\PDF\F2\9325225\	Empty_Folder
9325226	F2	\\172.27.137.202\One_app_download\9325226	C:\Users\mgoas\Documents\File_copy\PDF\F2\9325226\	Empty_Folder
9325230	F2	\\172.27.137.202\One_app_download\9325230	C:\Users\mgoas\Documents\File_copy\PDF\F2\9325230\	Empty_Folder
9325231	F2	\\172.27.137.202\One_app_download\9325231	C:\Users\mgoas\Documents\File_copy\PDF\F2\9325231\	Empty_Folder
9325233	F2	\\172.27.137.202\One_app_download\9325233	C:\Users\mgoas\Documents\File_copy\PDF\F2\9325233\	Empty_Folder
9325235	F2	\\172.27.137.202\One_app_download\9325235	C:\Users\mgoas\Documents\File_copy\PDF\F2\9325235\	Empty_Folder
9326815	F2	\\172.27.137.202\One_app_download\9326815	C:\Users\mgoas\Documents\File_copy\PDF\F2\9326815\	Empty_Folder
9324844	F2	\\172.27.137.202\One_app_download\9324844	C:\Users\mgoas\Documents\File_copy\PDF\F2\9324844\	Empty_Folder
9326861	F2	\\172.27.137.202\One_app_download\9326861	C:\Users\mgoas\Documents\File_copy\PDF\F2\9326861\	Empty_Folder
9326870	F2	\\172.27.137.202\One_app_download\9326870	C:\Users\mgoas\Documents\File_copy\PDF\F2\9326870\	Empty_Folder
9326872	F2	\\172.27.137.202\One_app_download\9326872	C:\Users\mgoas\Documents\File_copy\PDF\F2\9326872\	Empty_Folder
9326873	F2	\\172.27.137.202\One_app_download\9326873	C:\Users\mgoas\Documents\File_copy\PDF\F2\9326873\	Empty_Folder
9326876	F2	\\172.27.137.202\One_app_download\9326876	C:\Users\mgoas\Documents\File_copy\PDF\F2\9326876\	Empty_Folder
9324848	F2	\\172.27.137.202\One_app_download\9324848	C:\Users\mgoas\Documents\File_copy\PDF\F2\9324848\	Empty_Folder
9324560	F2	\\172.27.137.202\One_app_download\9324560	C:\Users\mgoas\Documents\File_copy\PDF\F2\9324560\	Empty_Folder
9324564	F2	\\172.27.137.202\One_app_download\9324564	C:\Users\mgoas\Documents\File_copy\PDF\F2\9324564\	Empty_Folder
9324565	F2	\\172.27.137.202\One_app_download\9324565	C:\Users\mgoas\Documents\File_copy\PDF\F2\9324565\	Empty_Folder
9324568	F2	\\172.27.137.202\One_app_download\9324568	C:\Users\mgoas\Documents\File_copy\PDF\F2\9324568\	Empty_Folder
9324614	F2	\\172.27.137.202\One_app_download\9324614	C:\Users\mgoas\Documents\File_copy\PDF\F2\9324614\	Empty_Folder
9324078	F2	\\172.27.137.202\One_app_download\9324078	C:\Users\mgoas\Documents\File_copy\PDF\F2\9324078\	Empty_Folder
9324079	F2	\\172.27.137.202\One_app_download\9324079	C:\Users\mgoas\Documents\File_copy\PDF\F2\9324079\	Empty_Folder
9324082	F2	\\172.27.137.202\One_app_download\9324082	C:\Users\mgoas\Documents\File_copy\PDF\F2\9324082\	Empty_Folder
9324099	F2	\\172.27.137.202\One_app_download\9324099	C:\Users\mgoas\Documents\File_copy\PDF\F2\9324099\	Empty_Folder
9324113	F2	\\172.27.137.202\One_app_download\9324113	C:\Users\mgoas\Documents\File_copy\PDF\F2\9324113\	Empty_Folder
9324114	F2	\\172.27.137.202\One_app_download\9324114	C:\Users\mgoas\Documents\File_copy\PDF\F2\9324114\	Empty_Folder
9324120	F2	\\172.27.137.202\One_app_download\9324120	C:\Users\mgoas\Documents\File_copy\PDF\F2\9324120\	Empty_Folder
9324122	F2	\\172.27.137.202\One_app_download\9324122	C:\Users\mgoas\Documents\File_copy\PDF\F2\9324122\	Empty_Folder
9324148	F2	\\172.27.137.202\One_app_download\9324148	C:\Users\mgoas\Documents\File_copy\PDF\F2\9324148\	Empty_Folder
9324149	F2	\\172.27.137.202\One_app_download\9324149	C:\Users\mgoas\Documents\File_copy\PDF\F2\9324149\	Empty_Folder
9324153	F2	\\172.27.137.202\One_app_download\9324153	C:\Users\mgoas\Documents\File_copy\PDF\F2\9324153\	Empty_Folder
9324155	F2	\\172.27.137.202\One_app_download\9324155	C:\Users\mgoas\Documents\File_copy\PDF\F2\9324155\	Empty_Folder
9324157	F2	\\172.27.137.202\One_app_download\9324157	C:\Users\mgoas\Documents\File_copy\PDF\F2\9324157\	Empty_Folder
9324162	F2	\\172.27.137.202\One_app_download\9324162	C:\Users\mgoas\Documents\File_copy\PDF\F2\9324162\	Empty_Folder
9324174	F2	\\172.27.137.202\One_app_download\9324174	C:\Users\mgoas\Documents\File_copy\PDF\F2\9324174\	Empty_Folder
9324176	F2	\\172.27.137.202\One_app_download\9324176	C:\Users\mgoas\Documents\File_copy\PDF\F2\9324176\	Empty_Folder
9324178	F2	\\172.27.137.202\One_app_download\9324178	C:\Users\mgoas\Documents\File_copy\PDF\F2\9324178\	Empty_Folder
9324180	F2	\\172.27.137.202\One_app_download\9324180	C:\Users\mgoas\Documents\File_copy\PDF\F2\9324180\	Empty_Folder
9324185	F2	\\172.27.137.202\One_app_download\9324185	C:\Users\mgoas\Documents\File_copy\PDF\F2\9324185\	Empty_Folder
9324200	F2	\\172.27.137.202\One_app_download\9324200	C:\Users\mgoas\Documents\File_copy\PDF\F2\9324200\	Empty_Folder
9310497	F2	\\172.27.137.202\One_app_download\9310497	C:\Users\mgoas\Documents\File_copy\PDF\F2\9310497\	Empty_Folder
9323346	F2	\\172.27.137.202\One_app_download\9323346	C:\Users\mgoas\Documents\File_copy\PDF\F2\9323346\	Empty_Folder
9293075	F2	\\172.27.137.202\One_app_download\9293075	C:\Users\mgoas\Documents\File_copy\PDF\F2\9293075\	Empty_Folder
9296313	F2	\\172.27.137.202\One_app_download\9296313	C:\Users\mgoas\Documents\File_copy\PDF\F2\9296313\	Empty_Folder
9323472	F2	\\172.27.137.202\One_app_download\9323472	C:\Users\mgoas\Documents\File_copy\PDF\F2\9323472\	Empty_Folder
9324141	F2	\\172.27.137.202\One_app_download\9324141	C:\Users\mgoas\Documents\File_copy\PDF\F2\9324141\	Empty_Folder
9316421	F2	\\172.27.137.202\One_app_download\9316421	C:\Users\mgoas\Documents\File_copy\PDF\F2\9316421\	Empty_Folder
9324332	F2	\\172.27.137.202\One_app_download\9324332	C:\Users\mgoas\Documents\File_copy\PDF\F2\9324332\	Empty_Folder
9324336	F2	\\172.27.137.202\One_app_download\9324336	C:\Users\mgoas\Documents\File_copy\PDF\F2\9324336\	Empty_Folder
9324389	F2	\\172.27.137.202\One_app_download\9324389	C:\Users\mgoas\Documents\File_copy\PDF\F2\9324389\	Empty_Folder
9324398	F2	\\172.27.137.202\One_app_download\9324398	C:\Users\mgoas\Documents\File_copy\PDF\F2\9324398\	Empty_Folder
9324399	F2	\\172.27.137.202\One_app_download\9324399	C:\Users\mgoas\Documents\File_copy\PDF\F2\9324399\	Empty_Folder
9324396	F2	\\172.27.137.202\One_app_download\9324396	C:\Users\mgoas\Documents\File_copy\PDF\F2\9324396\	Empty_Folder
9324906	F2	\\172.27.137.202\One_app_download\9324906	C:\Users\mgoas\Documents\File_copy\PDF\F2\9324906\	Empty_Folder
9324909	F2	\\172.27.137.202\One_app_download\9324909	C:\Users\mgoas\Documents\File_copy\PDF\F2\9324909\	Empty_Folder
9325219	F2	\\172.27.137.202\One_app_download\9325219	C:\Users\mgoas\Documents\File_copy\PDF\F2\9325219\	Empty_Folder
9325220	F2	\\172.27.137.202\One_app_download\9325220	C:\Users\mgoas\Documents\File_copy\PDF\F2\9325220\	Empty_Folder
9325221	F2	\\172.27.137.202\One_app_download\9325221	C:\Users\mgoas\Documents\File_copy\PDF\F2\9325221\	Empty_Folder
9320548	F2	\\172.27.137.202\One_app_download\9320548	C:\Users\mgoas\Documents\File_copy\PDF\F2\9320548\	Empty_Folder
9321087	F2	\\172.27.137.202\One_app_download\9321087	C:\Users\mgoas\Documents\File_copy\PDF\F2\9321087\	Empty_Folder
9321100	F2	\\172.27.137.202\One_app_download\9321100	C:\Users\mgoas\Documents\File_copy\PDF\F2\9321100\	Empty_Folder
9321101	F2	\\172.27.137.202\One_app_download\9321101	C:\Users\mgoas\Documents\File_copy\PDF\F2\9321101\	Empty_Folder
9321107	F2	\\172.27.137.202\One_app_download\9321107	C:\Users\mgoas\Documents\File_copy\PDF\F2\9321107\	Empty_Folder
9321134	F2	\\172.27.137.202\One_app_download\9321134	C:\Users\mgoas\Documents\File_copy\PDF\F2\9321134\	Empty_Folder
9321197	F2	\\172.27.137.202\One_app_download\9321197	C:\Users\mgoas\Documents\File_copy\PDF\F2\9321197\	Empty_Folder
9321164	F2	\\172.27.137.202\One_app_download\9321164	C:\Users\mgoas\Documents\File_copy\PDF\F2\9321164\	Empty_Folder
9321191	F2	\\172.27.137.202\One_app_download\9321191	C:\Users\mgoas\Documents\File_copy\PDF\F2\9321191\	Empty_Folder
9321206	F2	\\172.27.137.202\One_app_download\9321206	C:\Users\mgoas\Documents\File_copy\PDF\F2\9321206\	Empty_Folder
9321207	F2	\\172.27.137.202\One_app_download\9321207	C:\Users\mgoas\Documents\File_copy\PDF\F2\9321207\	Empty_Folder
9321213	F2	\\172.27.137.202\One_app_download\9321213	C:\Users\mgoas\Documents\File_copy\PDF\F2\9321213\	Empty_Folder
9319523	F2	\\172.27.137.202\One_app_download\9319523	C:\Users\mgoas\Documents\File_copy\PDF\F2\9319523\	Empty_Folder
9323857	F2	\\172.27.137.202\One_app_download\9323857	C:\Users\mgoas\Documents\File_copy\PDF\F2\9323857\	Empty_Folder
9323861	F2	\\172.27.137.202\One_app_download\9323861	C:\Users\mgoas\Documents\File_copy\PDF\F2\9323861\	Empty_Folder
9323871	F2	\\172.27.137.202\One_app_download\9323871	C:\Users\mgoas\Documents\File_copy\PDF\F2\9323871\	Empty_Folder
9323872	F2	\\172.27.137.202\One_app_download\9323872	C:\Users\mgoas\Documents\File_copy\PDF\F2\9323872\	Empty_Folder
9323913	F2	\\172.27.137.202\One_app_download\9323913	C:\Users\mgoas\Documents\File_copy\PDF\F2\9323913\	Empty_Folder
9323921	F2	\\172.27.137.202\One_app_download\9323921	C:\Users\mgoas\Documents\File_copy\PDF\F2\9323921\	Empty_Folder
9323968	F2	\\172.27.137.202\One_app_download\9323968	C:\Users\mgoas\Documents\File_copy\PDF\F2\9323968\	Empty_Folder
9323971	F2	\\172.27.137.202\One_app_download\9323971	C:\Users\mgoas\Documents\File_copy\PDF\F2\9323971\	Empty_Folder
9323972	F2	\\172.27.137.202\One_app_download\9323972	C:\Users\mgoas\Documents\File_copy\PDF\F2\9323972\	Empty_Folder
9324206	F2	\\172.27.137.202\One_app_download\9324206	C:\Users\mgoas\Documents\File_copy\PDF\F2\9324206\	Empty_Folder
9324216	F2	\\172.27.137.202\One_app_download\9324216	C:\Users\mgoas\Documents\File_copy\PDF\F2\9324216\	Empty_Folder
9324230	F2	\\172.27.137.202\One_app_download\9324230	C:\Users\mgoas\Documents\File_copy\PDF\F2\9324230\	Empty_Folder
9324061	F2	\\172.27.137.202\One_app_download\9324061	C:\Users\mgoas\Documents\File_copy\PDF\F2\9324061\	Empty_Folder
9324074	F2	\\172.27.137.202\One_app_download\9324074	C:\Users\mgoas\Documents\File_copy\PDF\F2\9324074\	Empty_Folder
9324075	F2	\\172.27.137.202\One_app_download\9324075	C:\Users\mgoas\Documents\File_copy\PDF\F2\9324075\	Empty_Folder
9323579	F2	\\172.27.137.202\One_app_download\9323579	C:\Users\mgoas\Documents\File_copy\PDF\F2\9323579\	Empty_Folder
9322799	F2	\\172.27.137.202\One_app_download\9322799	C:\Users\mgoas\Documents\File_copy\PDF\F2\9322799\	Empty_Folder
9323989	F2	\\172.27.137.202\One_app_download\9323989	C:\Users\mgoas\Documents\File_copy\PDF\F2\9323989\	0
9323992	F2	\\172.27.137.202\One_app_download\9323992	C:\Users\mgoas\Documents\File_copy\PDF\F2\9323992\	Empty_Folder
9324253	F2	\\172.27.137.202\One_app_download\9324253	C:\Users\mgoas\Documents\File_copy\PDF\F2\9324253\	Empty_Folder
9324256	F2	\\172.27.137.202\One_app_download\9324256	C:\Users\mgoas\Documents\File_copy\PDF\F2\9324256\	Empty_Folder
9324257	F2	\\172.27.137.202\One_app_download\9324257	C:\Users\mgoas\Documents\File_copy\PDF\F2\9324257\	Empty_Folder
9323596	F2	\\172.27.137.202\One_app_download\9323596	C:\Users\mgoas\Documents\File_copy\PDF\F2\9323596\	Empty_Folder
9320593	F2	\\172.27.137.202\One_app_download\9320593	C:\Users\mgoas\Documents\File_copy\PDF\F2\9320593\	Empty_Folder
9320649	F2	\\172.27.137.202\One_app_download\9320649	C:\Users\mgoas\Documents\File_copy\PDF\F2\9320649\	Empty_Folder
9320653	F2	\\172.27.137.202\One_app_download\9320653	C:\Users\mgoas\Documents\File_copy\PDF\F2\9320653\	Empty_Folder
9320665	F2	\\172.27.137.202\One_app_download\9320665	C:\Users\mgoas\Documents\File_copy\PDF\F2\9320665\	Empty_Folder
9320724	F2	\\172.27.137.202\One_app_download\9320724	C:\Users\mgoas\Documents\File_copy\PDF\F2\9320724\	Empty_Folder
9320725	F2	\\172.27.137.202\One_app_download\9320725	C:\Users\mgoas\Documents\File_copy\PDF\F2\9320725\	Empty_Folder
9320738	F2	\\172.27.137.202\One_app_download\9320738	C:\Users\mgoas\Documents\File_copy\PDF\F2\9320738\	Empty_Folder
9323427	F2	\\172.27.137.202\One_app_download\9323427	C:\Users\mgoas\Documents\File_copy\PDF\F2\9323427\	Empty_Folder
9323601	F2	\\172.27.137.202\One_app_download\9323601	C:\Users\mgoas\Documents\File_copy\PDF\F2\9323601\	Empty_Folder
9323619	F2	\\172.27.137.202\One_app_download\9323619	C:\Users\mgoas\Documents\File_copy\PDF\F2\9323619\	Empty_Folder
9320500	F2	\\172.27.137.202\One_app_download\9320500	C:\Users\mgoas\Documents\File_copy\PDF\F2\9320500\	Empty_Folder
9320515	F2	\\172.27.137.202\One_app_download\9320515	C:\Users\mgoas\Documents\File_copy\PDF\F2\9320515\	Empty_Folder
9327134	F2	\\172.27.137.202\One_app_download\9327134	C:\Users\mgoas\Documents\File_copy\PDF\F2\9327134\	Empty_Folder
9327609	F2	\\172.27.137.202\One_app_download\9327609	C:\Users\mgoas\Documents\File_copy\PDF\F2\9327609\	Empty_Folder
9327132	F2	\\172.27.137.202\One_app_download\9327132	C:\Users\mgoas\Documents\File_copy\PDF\F2\9327132\	Empty_Folder
9327581	F2	\\172.27.137.202\One_app_download\9327581	C:\Users\mgoas\Documents\File_copy\PDF\F2\9327581\	Empty_Folder
9327580	F2	\\172.27.137.202\One_app_download\9327580	C:\Users\mgoas\Documents\File_copy\PDF\F2\9327580\	Empty_Folder
9327584	F2	\\172.27.137.202\One_app_download\9327584	C:\Users\mgoas\Documents\File_copy\PDF\F2\9327584\	Empty_Folder
9327593	F2	\\172.27.137.202\One_app_download\9327593	C:\Users\mgoas\Documents\File_copy\PDF\F2\9327593\	Empty_Folder
9327594	F2	\\172.27.137.202\One_app_download\9327594	C:\Users\mgoas\Documents\File_copy\PDF\F2\9327594\	Empty_Folder
9327599	F2	\\172.27.137.202\One_app_download\9327599	C:\Users\mgoas\Documents\File_copy\PDF\F2\9327599\	Empty_Folder
9327602	F2	\\172.27.137.202\One_app_download\9327602	C:\Users\mgoas\Documents\File_copy\PDF\F2\9327602\	Empty_Folder
9327616	F2	\\172.27.137.202\One_app_download\9327616	C:\Users\mgoas\Documents\File_copy\PDF\F2\9327616\	Empty_Folder
9323101	F2	\\172.27.137.202\One_app_download\9323101	C:\Users\mgoas\Documents\File_copy\PDF\F2\9323101\	Empty_Folder
9326635	F2	\\172.27.137.202\One_app_download\9326635	C:\Users\mgoas\Documents\File_copy\PDF\F2\9326635\	Empty_Folder
9309252	F2	\\172.27.137.202\One_app_download\9309252	C:\Users\mgoas\Documents\File_copy\PDF\F2\9309252\	Empty_Folder
9323907	F2	\\172.27.137.202\One_app_download\9323907	C:\Users\mgoas\Documents\File_copy\PDF\F2\9323907\	Empty_Folder
9327135	F2	\\172.27.137.202\One_app_download\9327135	C:\Users\mgoas\Documents\File_copy\PDF\F2\9327135\	Empty_Folder
9327664	F2	\\172.27.137.202\One_app_download\9327664	C:\Users\mgoas\Documents\File_copy\PDF\F2\9327664\	Empty_Folder
9327665	F2	\\172.27.137.202\One_app_download\9327665	C:\Users\mgoas\Documents\File_copy\PDF\F2\9327665\	Empty_Folder
9327666	F2	\\172.27.137.202\One_app_download\9327666	C:\Users\mgoas\Documents\File_copy\PDF\F2\9327666\	Empty_Folder
9327667	F2	\\172.27.137.202\One_app_download\9327667	C:\Users\mgoas\Documents\File_copy\PDF\F2\9327667\	Empty_Folder
9327668	F2	\\172.27.137.202\One_app_download\9327668	C:\Users\mgoas\Documents\File_copy\PDF\F2\9327668\	Empty_Folder
9327674	F2	\\172.27.137.202\One_app_download\9327674	C:\Users\mgoas\Documents\File_copy\PDF\F2\9327674\	Empty_Folder
9327678	F2	\\172.27.137.202\One_app_download\9327678	C:\Users\mgoas\Documents\File_copy\PDF\F2\9327678\	Empty_Folder
9321254	F2	\\172.27.137.202\One_app_download\9321254	C:\Users\mgoas\Documents\File_copy\PDF\F2\9321254\	Empty_Folder
9323197	F2	\\172.27.137.202\One_app_download\9323197	C:\Users\mgoas\Documents\File_copy\PDF\F2\9323197\	Empty_Folder
9323620	F2	\\172.27.137.202\One_app_download\9323620	C:\Users\mgoas\Documents\File_copy\PDF\F2\9323620\	Empty_Folder
9321283	F2	\\172.27.137.202\One_app_download\9321283	C:\Users\mgoas\Documents\File_copy\PDF\F2\9321283\	Empty_Folder
9321611	F2	\\172.27.137.202\One_app_download\9321611	C:\Users\mgoas\Documents\File_copy\PDF\F2\9321611\	Empty_Folder
9323696	F2	\\172.27.137.202\One_app_download\9323696	C:\Users\mgoas\Documents\File_copy\PDF\F2\9323696\	Empty_Folder
9317196	F2	\\172.27.137.202\One_app_download\9317196	C:\Users\mgoas\Documents\File_copy\PDF\F2\9317196\	Empty_Folder
9323880	F2	\\172.27.137.202\One_app_download\9323880	C:\Users\mgoas\Documents\File_copy\PDF\F2\9323880\	Empty_Folder
9323884	F2	\\172.27.137.202\One_app_download\9323884	C:\Users\mgoas\Documents\File_copy\PDF\F2\9323884\	Empty_Folder
9321288	F2	\\172.27.137.202\One_app_download\9321288	C:\Users\mgoas\Documents\File_copy\PDF\F2\9321288\	Empty_Folder
9321318	F2	\\172.27.137.202\One_app_download\9321318	C:\Users\mgoas\Documents\File_copy\PDF\F2\9321318\	Empty_Folder
9321362	F2	\\172.27.137.202\One_app_download\9321362	C:\Users\mgoas\Documents\File_copy\PDF\F2\9321362\	Empty_Folder
9321377	F2	\\172.27.137.202\One_app_download\9321377	C:\Users\mgoas\Documents\File_copy\PDF\F2\9321377\	Empty_Folder
9320926	F2	\\172.27.137.202\One_app_download\9320926	C:\Users\mgoas\Documents\File_copy\PDF\F2\9320926\	Empty_Folder
9320935	F2	\\172.27.137.202\One_app_download\9320935	C:\Users\mgoas\Documents\File_copy\PDF\F2\9320935\	Empty_Folder
9320987	F2	\\172.27.137.202\One_app_download\9320987	C:\Users\mgoas\Documents\File_copy\PDF\F2\9320987\	Empty_Folder
9321000	F2	\\172.27.137.202\One_app_download\9321000	C:\Users\mgoas\Documents\File_copy\PDF\F2\9321000\	Empty_Folder
9321019	F2	\\172.27.137.202\One_app_download\9321019	C:\Users\mgoas\Documents\File_copy\PDF\F2\9321019\	Empty_Folder
9321023	F2	\\172.27.137.202\One_app_download\9321023	C:\Users\mgoas\Documents\File_copy\PDF\F2\9321023\	Empty_Folder
9321053	F2	\\172.27.137.202\One_app_download\9321053	C:\Users\mgoas\Documents\File_copy\PDF\F2\9321053\	Empty_Folder
9321054	F2	\\172.27.137.202\One_app_download\9321054	C:\Users\mgoas\Documents\File_copy\PDF\F2\9321054\	Empty_Folder
9323508	F2	\\172.27.137.202\One_app_download\9323508	C:\Users\mgoas\Documents\File_copy\PDF\F2\9323508\	Empty_Folder
9323554	F2	\\172.27.137.202\One_app_download\9323554	C:\Users\mgoas\Documents\File_copy\PDF\F2\9323554\	Empty_Folder
9323573	F2	\\172.27.137.202\One_app_download\9323573	C:\Users\mgoas\Documents\File_copy\PDF\F2\9323573\	Empty_Folder
9324265	F2	\\172.27.137.202\One_app_download\9324265	C:\Users\mgoas\Documents\File_copy\PDF\F2\9324265\	Empty_Folder
9324271	F2	\\172.27.137.202\One_app_download\9324271	C:\Users\mgoas\Documents\File_copy\PDF\F2\9324271\	Empty_Folder
