058367548	650409040b00030409060a0b00172507110c0b1100170b00114b060a08
058386834	67250e0b0b492603030e1427251215082f061717080b034904080a
128382088	7e1f5012500d1011091c1f12123e110b0a12111115501d1113
128397139	15787467617c7b767d7c777d70777d70556c747d7a7a3b767a78
124463290	2c5f45414342024f4d484d4b4d426c444358414d4540024f43025947
128367968	9efdecfff7f9ecf1fcf7f0edf1f0a9acdefceaf7f0eafbecf0fbeab0fdf1f3
124423046	b4daddd3d1d8d1c2d5dac7f4d7d5dadcd5d9d7dbdac7c1d8c0dddad39ad7db9ac1df
128375369	375a5e545f56525b1940565b435245447756435c5e5944505b5855565b1954585a
128369955	97fdf6faf2e4b9fab9f9f8e5f5e2e5eed7f0faf6fefbb9f4f8fa
128363824	783f392a3d2c30563b393c3f3d2a38392a2d28563b3735
128384927	c9a2aca7aca8bda6a789aca8bda6a7adbba8afbda0a7aee7aaa6a4
128370897	2e4a4f5c5c4b406e5a4f5c4759474242475d004d4143
128366726	cfa2a6a4aaa7aea1aca0aca48fadbcb8e2aab7aabbaabde1aca0e1baa4
128386104	17767973657260786072795774657673736e677e63747f72656439747839627c
128384873	7d0408151c13131c04080e081b3d041c151212531e1210
128373522	2057474f4b4f4f4c60474d41494c0e434f4d
128394904	c2b8a3b0adadac9daf82aaadb6afa3abaeeca1adecb7a9
088398168	7d1b14111811111809094f3d1c1211531e1210
088399013	8decffecfef9e4cde5e2f9e0ece4e1a3eee2e0
088398963	f88a9d91949481b88b968d9ad6948c9cd68d93
088410350	94f9f9f7fbf2f2f1f1a3a3a3a3a3d4f3f9f5fdf8baf7fbf9
088409070	66050e140f15481213140804130a0a54260803121109140d14070f0a48050948130d
084058920	177e79717857767b7576797372647e707939747839627c
088396207	c3a9a2b1a6a7edaeaaafada6b083a5a2aab1abb6b1b0b7eda0acedb6a8
088399710	f1968394939e828bdf90969f9894828b9a90b1969c90989ddf929e9c
084261819	a5c1cad7cacbe5c8c6d788c6cacbd6d0c9d1cccbc28bc6ca8bd0ce
088408811	0474617061762a6560676b676f44736b7668617d2a676b69
084409771	0b637e7c2566647979627864654b6a6e68646625686466
084218498	5f3336293a2d2f303033372c2a1f37302b323e3633713c3032
084458151	1b7a777a7576292b2b2f5b796f72756f7e69757e6f35787476
08400564X	e2838c869b88808d958ca2858f838b8ecc818d8f
084267209	f598949c99b59d90988699908c969a9b868099819c9b92db969a98
084390385	3a5e4f54595b54144e55564955547a505b5955584914595557
084027062	7d091410531211181c0f043d18140f1e121053131809
088393866	187c797677707d6a587f75797174367b7775
030265917	44272b282d2a042737272b2a6a272b6a3e25
030275369	b2d9ddd0c7c1d5c0ddd0f2daddc6dfd3dbde9cd1dddf
03026686X	5537273a223b3a3834273e153238343c397b363a38
030272195	573f323525382039321738272338393b3e393279393223
030270374	92f6f7e0e0ebebe7d2fce5f1febcf1fdffbcfaf9
030282035	82f5e5f5edece5c2eae9f0f0eeace1edefaceae9
030256994	13706a612b2b53607a7d747d76673d707c7e3d6074
034336713	c3b0aab5a2edb0b1aab7aba2b1a2adf483a4aea2aaafeda0acae
034456262	2e4d465b4f46576e5e4b5c5b404a474049454f4f004d4143
030257002	2f444e474040461a1a6f48424e4643014c4042
030257063	f381928a9e9c9d97909b929dc2cbc1c3b3949e929a9fdd909c9e
030282023	07697e686c7e686960296f684774666a70686f2964686a297460
030257026	cda0a5a28dbda0a9faf9e3a5afbee3a8a9b8
031013711	7f081613061a104c463f0c161118111a0b511c1012510c18
030257099	cb88838e859487aeae949caa8ba1bfa8e5aca4bde5b8ac
030260473	f2a6b7babaa1b2a6abbebbbcdcb1bdbfdca1b5
030281991	ff9c9c889c929e9693bf8c969198919a8bd19c9092d18c98
030257038	aac6c3c7c2d984cecfeadacbc9c3ccc3c984c4cfde84d9cd
030280540	b0fed781868181f0c3d9ded7ded5c49ed3dfdd9ec3d7
03025712X	c2a9b5a7a7a7aca582b1abaca5a3b2adb0a7b2adb5a7b0eca1adafecb1a5
030279123	86eae7efedefe8f5efe8c6eae7efffe3e3a8e5e9eb
030256908	1e525b4c414d5b5059415f50505e4b4c5f30595148304d59
030261605	c4b0ada1a9bda1b384bda5acababeaa7aba9eab7a3
024395725	ee9c818c8b9c9aae8c9b9c898b9d9d9c819b89869a8180c08d8183
02008490X	6417080b13100c011624080b13100c0116010a030d0a0101160d0a034a070b4a110f
020267529	febf929f90d0b2979a9a9b9292bea9adaeb98c918b8ed09d9193
021010630	aecac1c0cfc2ca80c6c1c2c2c7cacfd7eecdcfdccb9ac8dccbcb80c0cbda
020004275	036f6a6d676268666d6d66677a33313336436b6c776e626a6f2d606c6e
020234028	dfabb0b2afbabebcb0bcb49fb2a6afb0acabb0b9b9b6bcbaf1bcb0f1aab4
021004194	640d050a4a160b060d0a170b0a241701120116020d0108004a070b09
02025456X	037362766f74437374626a77662d606c2d7668
021040031	017275647169646f2f73747272646d6d41727664626e2f626e2f746a
028360241	65010413004b1204170125120d0016160a004b060a4b100e
020040633	2c4b435e4843426c49404045435858404d424f5f02494f40455c5f49024f43025947
020020297	34505147595b5a506b47575b404074405d475755585d1a575b1a415f
02026459X	780b0c0d190a0c131b080d0a1c01381f15191114561b1715
020280380	c0b0a7b2a5a7afb2b98083afaea3b2a5b4a583a5aeb4b2a5eea3afad
020239616	9cefe8f9eaf9f2eeecf3f0f0fdeef8dcfbf1fdf5f0b2fff3f1
021073817	8dfef9f8ecfff9cdf9feeee8a3f8e6a3eee2e0
064139469	325b535c72505e5351595746461f5d4056515d5c4157404453465b5d5c1c515d1c4759
061073726	3d505c54517d4d5959584e545a53135e52134856
064153938	9cf7f9f2b2f4e9f8eff3f2dcfff0f9eaf9f0fdf2f8feeef5f8fbf9b2fff3f1
064214096	82e1eaf0ebf1c2efedeeebedf0e1edecf1f7eef6e3ece1fbace1edacf7e9
064015873	2a4b444e584f5d75594b5c4346464f6a485e43445e4f58444f5e04494547
064219549	187579717458727770767d6a717b367b77366d73
06440044X	bdeec9d8cbd8e2fbd1d8d0d4d3dafddbcac8d693dbcade93ded2d0
064239124	b8d2d7d0d6d6ddcfdac1f8ccd9d4d3ccd9d4d396d6ddcc
064288896	cda0aca4a18dafa1aca3a9
064316216	42323531023226312627312b252c6c212d6c3729
064423292	b7dfc2d5d5d6c5d3d6c4c4d8d4ded6c3d2c4f7c4dcce99d4d8da
064292483	0e7d7a7c7b6d7a7b7c6b7d4e6c7a67607a6b7c606b7a206d6163
064427310	e88b809a819bc69b808d849c8786a8828a898b87869b9d849c81868fc68b8785
064135930	711510071815050614141531031e121a14051c10181d5f121e1c
064407114	f79fd9849a9e839fb7929b9b969993848392929bd994989a
06416689X	076d686966736f6669296366716e74476f6675622964686a
068365660	1974786b7271787a72757c60597b6d7a7677777c7a6d377a7674
064202309	274e4649534e444c4b421667404a464e4b0944484a
064321435	a2d0cdc0cedbc7e2c0d6cbccd6c7d0ccc7d68cc1cdcf
064291639	046065726d606e706170686b7344656b682a676b69
010029405	0c6d606d624c7c6d7b7f787e796f78797e697f22607868227967
01025747X	8dfde5e4e1a3e5e2fae9e8e3cdf9e5e2e0ecfeeee2e3fef8e1f9e4e3eaa3eee2a3f8e6
010267019	a8d8c0c1c4c1d886cd86d8cdc9cbc7cbc3e8cfc5c9c1c486cbc7c5
01027419X	2757425342550943424549425e67465552570944484a
010262337	12787d77526166606771666760737e3c7d60753c6779
01006663X	fb8c9a979688979e82d5999a898982bb998f92958f9e89959e8fd5989496
010142395	37545f455e4419405f5647475b524477505a565e5b1954585a
011029175	ddb5b4b1b1bebcb3b3b2b39dbfa9beb2b3b3b8bea9f3beb2b0
01007818X	d9bdbcabbcb2f7b3aaeaee99beb4b8b0b5f7bab6b4
011008075	b7d9ded4c0d2d5d5f7d4dbd6c5dcd2d5d8d9d399d4d8da
010251808	abd8c2c6c4c585dbd9cedeccd8c8c3cadfebcdc9dbc8c4c5d8dec7dfc2c5cc85c8c485dec0
010015276	f483919d86da999586879c959898b49680979b9a9a919780da979b99
010124274	8dfee0f4f9e5e9e8ffe8e6cde5e2f9e0ece4e1a3eee2a3f8e6
010231093	16717c2225567b77753875797b
010129421	b3dcc7c0f3c7d2dfd8c7d2dfd89dddd6c7
010127005	afc5c0c7c181dcdadddbcacadcefcddbc6c1dbcaddc1cadb81ccc0c2
010257481	1a6e6873696e687b773472756a7f5a6e72736975766f6e73757469766e7e347975346f71
014427094	a6cb88c2c3c8cec7cbe6c3cacac7c8c2d5d2c3c3ca88c5c9cb
014453733	0668636f6a287667746d6f6875696846657374726f68752865696b
010123328	88fba6ffa6efe9fafae1fcf1c8e4ededecfba6e9eba6fde3
010141482	681a07112818091a1c01060f1c070645091b1b070b01091c0d1b460b0705
071096561	4825293a23663b2321242a2d2b23083f27272c38242b662b2725
074171549	dfb7b6b3b3abadb6bdbaebed9fabbeb3b4abbeb3b4f1b1baab
074447751	0169607269686c6c68737b6041696e756c60686d2f626e2f746a
071104086	2c4859424f4d42025c5e554f496c5b4d58495e414d424b5e43595c024f4341
074453708	f7969a9e99d9969b9e8492919683b7909a969e9bd994989a
078370886	b7c3c5d2c1d8c5f7c3c0dfdec3d2c4c3c5c2d4c3c2c5d6db99d4d899c2dc
078392734	6e021a0f1702011c2e0c0b0202031b001c01400d01401b05
078363944	0364666c7164662d6f62796271437470732d606c6e
078368451	731416011201172c120109120716330a121b1c1c5d101c1e5d1e0b
07434410X	3a4c5f574f4843595554494f564e5b5459437a5d575b535614595557
074332935	472d282f292169202e2b2b2234372e22072f28332a262e2b69242869322c
071147483	4a3825282f383e382f332425262e397b7b7b0a283e23243e2f38242f3e64292527
078407533	8af8e5f9f9a4e9e6efeffee5e4caebe7efe9ecfda4e9e5e7
078400330	65160c080a0b4b0a0e000003030025000100160911014b060a08
078381041	e6878a84838f94898b87949793839ca68e89928b878f8ac885898b
078362054	533e322138202a0c62132a323b3c3c7d303c3e