Format_ID	pdfFormat
9414625	Format2
9432921	Format2
9433994	Format2
9432930	Format2
9422830	Format2
9467191	Format2
9467193	Format2
9361724	Format2
9466636	Others
9468413	Format2
9472410	Format2
9507069	Format2
9510047	Format2
9523415	Format2
9523422	Format2
9523414	Format2
9467949	Format2
9423166	Format2
9469036	Format2
9469827	Format2
9432929	Others
9424975	Others
9429347	Format2
9463865	Format2
9026958	Others
9057407	Others
9410684	Format2
9482792	Format2
9536236	Others
9424559	Format2
9397848	Format2
9468130	Others
9469569	Others
9469818	Others
9469107	Others
9512552	Format2
9507087	Others
9510695	Others
9513635	Format2
9513495	Format2
9466859	Format2
9467211	Format2
9416726	Format2
9446852	Format2
9473804	Format2
9489006	Format2
9454763	Format2
9459545	Format2
9466615	Format2
9467032	Format2
9431092	Format2
9469686	Others
9472293	Format2
9458910	Others
9468651	Format2
9468637	Format2
9468645	Format2
9470809	Format2
9470810	Format2
9470811	Format2
9427355	Format2
9458827	Format2
9468120	Format2
9461041	Format2
9463706	Format2
9450303	Format2
9468136	Format2
9468131	Format2
9468767	Format2
9520307	Others
9520306	Others
9510054	Others
9543111	Format2
9533436	Format2
9434143	Format2
9467908	Format2
9469005	Format2
9470391	Format2
9470392	Format2
9450407	Format2
9428213	Format2
9469565	Format2
9469566	Format2
9428214	Format2
9413862	Format2
9427716	Format2
9467201	Format2
9467198	Format2
9484764	Format2
9485779	Format2
9485787	Format2
9488461	Format2
9496402	Format2
9485900	Format2
9508003	Format2
9519798	Format2
9536328	Format2
9512549	Others
9512547	Others
9517053	Others
9517700	Others
9479073	Others
9479075	Others
9478832	Others
9478813	Others
9467230	Others
9467234	Others
9470079	Others
9473186	Others
9506601	Others
9560403	Others
9551336	Others
9563330	Others
9560404	Others
9362188	Others
9475523	Others
9470727	Others
9476313	Others
9467122	Others
9470326	Others
9473195	Others
9473197	Others
9459531	Others
9448611	Others
9547939	Others
9486388	Others
9506633	Others
9506629	Others
9515871	Others
9506632	Others
9523263	Others
9475817	Others
9470096	Others
9475818	Others
9484297	Others
9483711	Others
9437919	Others
9422355	Others
9433221	Others
9469014	Others
9470731	Others
9470111	Others
9486450	Others
9507058	Others
9508412	Others
9514316	Others
9514314	Others
9515582	Others
9481479	Others
9505186	Others
9505210	Others
9508037	Others
9508038	Others
9467142	Others
9467139	Others
9456656	Others
9467160	Others
9470131	Others
9471819	Others
9506644	Others
9510168	Others
9509740	Others
9509782	Others
9512718	Others
9482460	Others
9482544	Others
9482899	Others
9473827	Others
9475402	Others
9479090	Others
9478606	Others
9481111	Others
9460448	Others
9476587	Others
9479285	Others
9490267	Others
9496798	Others
9496799	Others
9423198	Others
9433236	Format2
9433236	Format2
9437955	Format2
9452227	Format2
9437931	Format2
9474137	Others
9402478	Format2
9448688	Format2
9467056	Format2
9464408	Format2
9468737	Format2
9450610	Format2
9497003	Format2
9508004	Others
9519356	Format2
9519802	Format2
9213411	Others
9397984	Others
9402445	Others
9360520	Others
9469500	Format2
9487407	Format2
9483145	Format2
9483165	Format2
9483167	Format2
9521018	Format2
9521021	Others
9509147	Format2
9468394	Others
9468127	Format2
9472319	Format2
9472503	Format2
9466875	Format2
9467171	Format2
9471688	Format2
9467170	Format2
9469019	Format2
9467175	Others
9467176	Others
9467177	Others
9468787	Format2
9468788	Format2
9471461	Format2
9474159	Format2
9468791	Others
9042654	Others
9250417	Others
9258211	Others
9218900	Others
9113525	Others
9467174	Format2
9470225	Format2
9467173	Format2
9465884	Format2
9468555	Others
9468631	Others
9469691	Format2
9471664	Format2
9488314	Format2
9489370	Format2
9467418	Others
9467595	Format2
9361122	Format2
9278382	Format2
9473476	Others
9475036	Format2
9362731	Others
9360764	Format2
9469022	Format2
9469024	Format2
9398325	Format2
9410671	Others
9398379	Format2
9467613	Format2
9467610	Others
9467612	Format2
9469031	Format2
9437078	Format2
9425764	Format2
9456354	Format2
9435577	Format2
9471401	Others
9471361	Format2
9469473	Format2
9467616	Format2
9467619	Format2
9467620	Format2
9468170	Format2
9467617	Format2
9229800	Others
9461321	Others
9453891	Others
9467024	Others
9467037	Others
9262989	Others
9398547	Others
9427042	Others
9428281	Others
9261372	Format2
9275579	Format2
9473789	Format2
9505173	Format2
9467615	Format2
9468166	Format2
9473209	Format2
9469320	Format2
9469321	Format2
9469315	Format2
9470553	Format2
9497449	Format2
9528094	Format2
9528100	Others
9467629	Format2
9442242	Format2
9559519	Format2
9560282	Format2
9559516	Format2
9461536	Others
9468933	Format2
9467637	Format2
9471754	Format2
9483763	Others
9525967	Others
9467042	Format2
9469568	Format2
9467043	Format2
9467636	Format2
9468939	Format2
9475358	Format2
9114686	Format2
9361503	Format2
9361536	Format2
9436549	Others
9463102	Format2
9466933	Others
9468173	Others
9482538	Others
9484274	Others
9467998	Format2
9467996	Format2
9469948	Format2
9472965	Format2
9472967	Format2
9467995	Others
9467991	Format2
9468002	Format2
9470467	Format2
9035698	Format2
9477725	Others
9477757	Others
9470761	Others
9473898	Others
9470910	Format2
9467594	Format2
9468447	Format2
9468010	Format2
9402068	Format2
9463997	Format2
9466342	Format2
9470763	Format2
9470475	Format2
9470476	Others
9473605	Format2
9468446	Format2
9469806	Others
9447393	Format2
9461389	Format2
9469298	Format2
9468022	Others
9468023	Others
9468025	Others
9462307	Others
9446771	Others
9469000	Format2
9446677	Others
9446679	Others
9462410	Others
9464748	Others
9464942	Others
9470506	Format2
9475541	Others
9470508	Others
9512834	Others
9529863	Others
9515768	Format2
9529185	Format2
9560666	Format2
9300604	Others
9438806	Format2
9416091	Others
9416092	Others
9469540	Others
9471983	Format2
9472000	Others
9474824	Format2
9405166	Format2
9467669	Format2
9467670	Format2
9468195	Format2
9468194	Format2
9497846	Others
9508806	Others
9500463	Others
9519858	Others
9533770	Others
9404462	Format2
9425243	Format2
9430993	Format2
9455177	Format2
9545693	Format2
9551826	Format2
9467693	Format2
9468200	Format2
9469032	Others
9471750	Format2
9471751	Format2
9456666	Others
9413881	Format2
9465263	Format2
9470641	Others
9470359	Format2
9473813	Format2
9469883	Others
9473299	Others
9470363	Format2
9473298	Others
9467451	Format2
9469892	Format2
9469891	Format2
9481733	Format2
9489166	Format2
9469902	Others
9474551	Others
9467697	Format2
9467698	Format2
9478425	Format2
9129877	Others
9110306	Others
9426746	Others
9459281	Others
9466877	Format2
9467444	Format2
9467454	Format2
9467453	Format2
9467437	Format2
9469137	Format2
9469139	Format2
9470871	Format2
9552632	Format2
9508440	Format2
9521948	Format2
9522996	Format2
9522999	Format2
9507291	Format2
9476999	Format2
9508947	Others
9508954	Others
9519902	Others
9521454	Format2
9466873	Format2
9470869	Format2
9476140	Format2
9467460	Format2
9468905	Format2
9470270	Format2
9263768	Format2
9398531	Others
9402482	Format2
9357503	Format2
9357512	Others
9461984	Format2
9467017	Format2
9467016	Format2
9471949	Others
9469920	Format2
9469922	Format2
9482903	Format2
9466889	Format2
9467262	Format2
9467268	Format2
9468452	Format2
9467253	Format2
9468453	Format2
9471639	Others
9474806	Format2
9474808	Format2
9477442	Format2
9479422	Format2
9315149	Others
9472058	Format2
9474869	Format2
9474876	Format2
9474874	Format2
9467258	Format2
9470275	Format2
9461368	Others
9479433	Format2
9479431	Format2
9479435	Format2
9470265	Others
9471784	Others
9478150	Others
9415803	Format2
9446176	Format2
9480163	Format2
9471691	Format2
9434587	Others
9447220	Others
9466840	Format2
9467279	Others
9467280	Format2
9470655	Format2
9356899	Format2
9321674	Format2
9335208	Format2
9186907	Format2
9181207	Others
9160482	Format2
9467287	Format2
9470288	Format2
9470667	Format2
9467283	Others
9468954	Format2
9467785	Format2
9470364	Format2
9468953	Format2
9472565	Others
9469007	Format2
9472236	Format2
9472269	Format2
9472586	Format2
9302215	Format2
9403010	Format2
9400959	Format2
9358902	Others
9467080	Others
9467081	Others
9401995	Format2
9403735	Format2
9412948	Others
9412949	Format2
9412950	Format2
9517992	Format2
9523130	Format2
9547495	Format2
9559072	Format2
9477069	Format2
9478777	Format2
9478779	Format2
9490040	Format2
9467712	Format2
9467716	Format2
9475040	Format2
9489292	Format2
9489348	Format2
9462141	Format2
9466922	Others
9467719	Format2
9470175	Format2
9466831	Format2
9466822	Others
9324202	Others
9398195	Format2
9470515	Format2
9470516	Format2
9484534	Format2
9484905	Others
9515296	Others
9467291	Format2
9351843	Format2
9467300	Format2
9323259	Format2
9428556	Format2
9468034	Format2
9466901	Format2
9466846	Format2
9467812	Format2
9469043	Others
9467813	Others
8957162	Format2
9333464	Format2
9415711	Others
9435835	Format2
9440581	Format2
9466848	Format2
9476152	Others
9487706	Others
9489988	Format2
9509292	Others
9521156	Format2
9512674	Format2
9521154	Format2
9534246	Others
9467822	Others
9467824	Format2
9468895	Format2
9467821	Format2
9468325	Format2
9467828	Format2
9470002	Format2
9472795	Format2
9471427	Format2
9476706	Others
9477004	Format2
9477003	Format2
9467830	Format2
9470010	Others
9433848	Others
9433854	Others
9438256	Format2
9466927	Format2
9467836	Format2
9475281	Format2
9476159	Format2
9476160	Format2
9480971	Others
9472804	Format2
9467838	Format2
9467840	Format2
9468332	Format2
9468334	Format2
9468333	Format2
9423231	Format2
9295885	Others
9460093	Format2
9468457	Others
9470706	Format2
9470881	Format2
9467851	Format2
9467852	Format2
9468897	Format2
9468898	Format2
9487537	Format2
9479009	Format2
9476270	Format2
9482920	Format2
9456134	Format2
9402542	Format2
9448448	Format2
9451175	Others
9461393	Others
9461394	Format2
9453979	Format2
9506703	Others
9506212	Format2
9510197	Others
9523557	Format2
9507803	Others
9445448	Format2
9435356	Format2
9460887	Format2
9454415	Format2
9469801	Format2
9447311	Format2
9441666	Format2
9466860	Format2
9469275	Format2
9195251	Format2
9201708	Format2
9195252	Format2
9287470	Others
9454284	Format2
9479792	Others
9479793	Format2
9479794	Format2
9301577	Format2
9401241	Others
9037162	Others
9447281	Others
9425856	Others
9460473	Others
9467743	Format2
9483947	Others
9489246	Format2
9467753	Format2
9467751	Format2
9474716	Format2
9474718	Format2
9474722	Format2
9472530	Format2
9186157	Format2
9300587	Others
9327106	Format2
9296776	Format2
9165717	Format2
9468119	Others
9468533	Format2
9470312	Format2
9471670	Format2
9467740	Format2
9478070	Others
9399669	Others
9446471	Others
9412022	Others
9464809	Others
9467759	Others
9513377	Others
9517793	Others
9525876	Others
9498791	Format2
9498794	Format2
9503475	Format2
9510298	Format2
9530857	Format2
9466891	Format2
9475773	Others
9483696	Format2
9440756	Others
9445037	Others
9450556	Format2
9467500	Format2
9468351	Format2
9468987	Others
9467769	Format2
9472267	Format2
9473351	Format2
9498806	Others
9503988	Format2
9504735	Format2
9500559	Format2
9515318	Others
9467504	Format2
9471149	Format2
9471150	Format2
9471145	Format2
9468353	Format2
9469048	Others
9469181	Others
9471260	Others
9474723	Others
9475087	Others
9318654	Others
9324567	Others
9309410	Others
9331085	Others
9356693	Others
9360862	Others
9401603	Others
9401595	Others
9404765	Format2
9300097	Format2
9435102	Format2
9463722	Format2
9469607	Format2
9486141	Format2
9516805	Others
9527658	Others
9471698	Format2
9475077	Format2
9473760	Format2
9361524	Format2
9448024	Format2
9467095	Format2
9467092	Format2
9336655	Others
9469295	Others
9362938	Others
9222001	Others
9453759	Others
9472154	Others
9468619	Others
9479207	Others
9487934	Format2
9277323	Others
9285192	Format2
9123032	Others
9458989	Format2
9467018	Format2
9469510	Format2
9467019	Format2
9467506	Others
9471717	Format2
9442402	Format2
9446760	Format2
9464185	Format2
9465640	Format2
9403722	Others
9403618	Format2
9422772	Others
9441849	Format2
9462323	Format2
9469177	Format2
9473698	Others
9468521	Format2
9400778	Others
9400779	Others
9051743	Others
9435435	Others
9448113	Others
9337328	Format2
9468363	Others
9467520	Format2
9243988	Format2
9468365	Format2
9468364	Others
9471182	Format2
9452527	Format2
9497755	Format2
9499529	Others
9469343	Format2
9469344	Format2
9469680	Format2
9311833	Others
9327501	Others
9232805	Others
9069569	Others
9360608	Others
9405210	Others
9405209	Others
9486191	Others
9487389	Others
9488768	Others
9456888	Others
9455719	Format2
9466897	Others
9468372	Others
9467525	Others
9467526	Others
9467529	Others
9468373	Format2
9469429	Others
9462771	Format2
9471072	Format2
9471004	Format2
9471069	Format2
9466756	Others
9468467	Others
9468469	Others
9466968	Format2
9470993	Format2
9475482	Others
9469393	Format2
9473143	Format2
9482968	Others
9467308	Format2
9467309	Format2
9467317	Format2
9467319	Format2
9466760	Format2
9467318	Format2
9466942	Format2
9466761	Format2
9453939	Format2
9466781	Format2
9467310	Format2
9467311	Format2
9442640	Format2
9447278	Format2
9468028	Format2
9458743	Format2
9468474	Format2
9468471	Format2
9468473	Format2
9467334	Format2
9467336	Format2
9467341	Others
9467342	Format2
9004628	Format2
9461841	Others
9462056	Others
9462060	Others
9468806	Others
9467329	Format2
9467327	Format2
9467328	Format2
9284202	Format2
9535739	Format2
9467333	Format2
9467332	Others
9455528	Format2
9471106	Format2
9471107	Others
9469353	Format2
9474357	Format2
9466775	Format2
9469193	Others
9482770	Format2
9474359	Format2
9490796	Others
9514615	Format2
9536364	Format2
9540912	Format2
9540910	Format2
9466976	Format2
9466977	Format2
9468507	Format2
9468480	Format2
9448909	Others
9469196	Format2
9448906	Others
9450539	Format2
9468384	Format2
9469419	Format2
9471304	Format2
9477272	Format2
9480259	Format2
9481942	Others
9481943	Others
9481962	Others
9247498	Format2
9469520	Format2
9477407	Format2
9467361	Format2
9467358	Others
9467359	Others
9467360	Format2
9471123	Format2
9437717	Format2
9453065	Others
9331107	Format2
9335518	Format2
9259794	Format2
9469665	Others
9469668	Format2
9284862	Format2
9462874	Format2
9426510	Others
9498330	Others
9497650	Others
9499572	Others
9502283	Others
9505817	Others
9467875	Others
9467876	Others
9471136	Others
9471138	Others
9466787	Others
9467900	Others
9478654	Others
9468745	Format2
9471479	Format2
9474176	Others
9522401	Others
9172070	Format2
9469068	Format2
9472280	Others
9479617	Format2
9479619	Format2
9435998	Others
9461707	Format2
9466071	Format2
9468738	Format2
9472190	Format2
9471608	Format2
9472241	Format2
9473249	Format2
9474422	Format2
9445400	Format2
9095840	Format2
9466902	Format2
9427162	Format2
9427169	Format2
9467903	Format2
9471135	Format2
9475798	Format2
9504899	Format2
9505713	Format2
9466791	Others
9469399	Others
9477630	Others
9507023	Others
9509183	Others
9469144	Format2
9471142	Format2
9473149	Others
9496962	Format2
9496963	Format2
9497278	Format2
9496956	Format2
9506776	Format2
9438759	Format2
9471805	Format2
9473161	Others
9335710	Format2
9356601	Format2
9360281	Format2
9505967	Format2
9512103	Format2
9514965	Format2
9514966	Format2
9517458	Format2
9471249	Format2
9471308	Others
9472218	Format2
9471036	Others
9467377	Format2
9467375	Format2
9466818	Format2
9474651	Format2
9521437	Format2
9485708	Format2
9563957	Format2
9563574	Format2
9543484	Format2
9229519	Others
9478970	Format2
9554162	Format2
9398587	Format2
9469640	Format2
9474202	Format2
9536740	Format2
9536739	Format2
9477587	Others
9520014	Format2
9476465	Format2
9527581	Format2
9477589	Format2
9522640	Format2
9536012	Format2
9524883	Format2
9415714	Format2
9531453	Format2
9425381	Format2
9434701	Format2
9489793	Format2
9509132	Format2
9474926	Format2
9514973	Format2
9518712	Format2
9533310	Format2
9534138	Others
9481547	Format2
9509088	Format2
9415717	Others
9502819	Format2
9519202	Others
9511255	Format2
9538107	Format2
9547290	Others
9546820	Others
9536302	Others
9126141	Format2
9508233	Format2
9517470	Format2
9544045	Format2
9515953	Format2
9517258	Format2
9552188	Others
9496865	Format2
9496867	Format2
9503359	Others
9505711	Format2
9496866	Format2
9513184	Others
9419895	Others
9397713	Others
9373499	Others
9394494	Others
9396520	Others
9406145	Others
9405901	Others
9376838	Others
9386068	Others
9417375	Others
9419528	Others
9405615	Others
9407016	Others
9367466	Others
9381163	Others
9420106	Others
9366158	Others
9389136	Others
9406957	Others
9406976	Others
9407570	Others
9407044	Others
9494084	Others
9405741	Others
9405775	Others
9405717	Others
9368174	Others
9419614	Others
